Gene,PosX,PosY
RAC1,1822.409,16.29565
RAC1,1281.796,18.47445
MUC1,1813.717,19.93805
ST-3,1028.269,20.25373
RAC1,1916.851,20.13861
VIM,531.6413,21.3587
GAPDH,735.3662,23.3662
VIM,1914.618,28.06742
GAPDH,1656.981,31.79114
ACTB,1559.581,34.50427
GAPDH,1515.671,36.5
ACTB,1493.206,40.78431
TP53,1326.467,43.52381
GAPDH,1341.02,43.35526
VEGF,1886.861,42.5
RAC1,781,49.17391
TFRC,1408.875,50.71667
VIM,1882.9,64.35714
GAPDH,489.2338,67.31169
ACTB,1645.366,70.6338
MET,938.5556,75.1
ACTB,1529.563,75.38393
ACTB,1568.835,80.43529
HER2,1944.342,88.97468
GAPDH,932.1579,90.63158
TP53,448.7559,93.09449
VIM,919,93.5
GAPDH,933.5333,97.56
TP53,475.48,96.91
GAPDH,1794.108,96.5
ACTB,1363.824,104.2059
ACTB,1369.02,106.16
GAPDH,645.8621,111.1379
RAC1,877.1574,122.5648
ACTB,839.4138,130.8966
ACTB,863.4773,139.4091
ETV4,1864.123,140.2329
CTSL2,664.0714,142.6571
ACTB,858.9286,143.0714
ACTB,1540.12,143.1196
CD68,357.0769,144.7308
VIM,1329.521,147.6929
MYC,908.9106,148.9512
VIM,1281.366,150.0446
EPCAM,691,151.5
VIM,1296.993,154.4044
TP53,732.2558,156.9612
ACTB,750.74,156.22
RAC1,742.3043,158.0978
TP53,1631.081,158.9556
VIM,1184.341,164.5
VIM,993.2375,166.1625
CTSL2,820.9076,167.9664
BCL2,1910.757,168.5
RAC1,985.4677,167.129
ACTB,1857.36,169.4719
RPLP0,985.7525,174.8218
ACTB,775.5,175.5
TP53,1082.406,177.7358
CTSL2,689.2338,180.2078
ACTB,1500.623,181.3766
ACTB,1954,181.5
GAPDH,964.869,182.5595
VIM,1633.566,186.3614
HER2,1934.837,189.3673
ACTB,1635.267,191.8667
ACTB,1375.661,195.4464
VIM,692.9592,196.602
TP53,1894.97,196.5909
VIM,1563.5,197.5
ACTB,1220,204.5
VIM,1678.684,211.0427
CTSL2,1910.939,213.626
ACTB,828.2909,216
VIM,1231.538,218.9231
RAC1,977.5,223.3
VIM,1392.154,227.2721
BCL2,1892.244,226.6341
ACTB,761.6961,230.451
RAC1,1703.748,229.9603
ACTB,902.7647,230.6706
RAC1,1690.265,249.3032
MUC1,1920.96,249.98
CD68,1968.54,254.1429
GAPDH,570.3735,257.7831
VIM,1360.617,257.8642
TP53,1876.886,258.5329
ACTB,1970.538,260.5
TP53,1936.055,265.0414
RPLP0,924.4345,275.1862
GAPDH,841.6774,276.1048
VIM,1334.5,279.0615
TFRC,765.3662,282.3662
ACTB,1444.133,282.3467
VIM,1457.818,282.5664
MYC,571.2642,285.5943
ACTB,1036,286.5
VIM,597,289
ETV4,1893.892,299.4706
GAPDH,1269,303.5
VIM,1041.132,304.8682
GAPDH,649.0233,305.8256
TP53,413.7477,312.2523
VIM,1023.078,314.3778
VIM,1017.687,319.6465
GAPDH,562.6489,321.9362
GAPDH,1143.181,321.4488
CTSL2,1804.93,321.4375
RPLP0,1826.497,321.8839
RAC1,1703.5,323.75
EPCAM,1420.491,326.2909
ACTB,1413.735,327.8795
ETV4,314.2989,330.977
ACTB,373.2295,332.5902
ER,772.1848,331.9457
RPLP0,1537.108,330.7338
RPLP0,1781.328,335.4138
RAC1,1135.066,338.0189
VIM,952.1529,346.8471
TP53,866.1692,354.7769
VIM,1428.736,355.7355
ACTB,825.3766,361.3766
EPCAM,1389.216,361.5676
TP53,1440.42,364.5467
CTSL2,1715.458,368.1949
CTSL2,397.5,371.5
CTSL2,405.6957,372.3478
ACTB,1150.243,375.5
RPLP0,1816.083,378.0682
ACTB,954.3481,387.4296
HER2,729.5,391
TP53,937.9257,392.9657
VIM,1056.218,395.6207
ACTB,1612.456,396.6176
VIM,1493.228,401.1707
VIM,1730.698,402.5952
VIM,430.8395,404.8395
ACTB,1396.131,408.3443
TP53,1854.883,407.8221
VIM,313.5,409.5
RAC1,909.2727,409.1818
ETV4,1890.781,408.4521
RAC1,1879.632,410.192
ETV4,1890.036,414.4821
ACTB,638.2738,415
ACTB,594.0521,415.6563
VIM,1383.202,415.0252
GAPDH,1368.846,420.8462
VIM,1523.231,423.6923
RAC1,822.2727,425.7273
TP53,926.073,434.1898
TP53,928.4561,441.3509
GAPDH,1795.398,438.7288
EPCAM,1208.443,440.4536
RPLP0,950.5294,442.719
ACTB,589,444
GAPDH,970.6486,445.1757
VIM,1842.733,447.5067
RPLP0,1205.733,454.92
RAC1,533,467
TP53,1946.801,469.795
RPLP0,1803.707,476.5691
TP53,1812.798,481.422
ACTB,1495.456,487.7982
RAC1,1556.522,488.4179
ETV4,947.2168,491.3007
TP53,1253.342,493.7468
VIM,974.1194,497.3582
VIM,1787.402,499.0157
HER2,1503.58,500.4533
BAG1,1432.136,504.136
CTSL2,1227.811,505.6081
ACTB,1546.781,505
RPLP0,1195.098,514.122
ACTB,1971.206,512.3364
ACTB,694.7381,514.0476
ACTB,900.8621,514.431
GAPDH,1767.866,518.4643
VIM,1803.69,520.8621
ACTB,904.2319,523.529
ACTB,784.375,523.1417
CTSL2,1551.419,524.2791
CTSL2,1558.857,529.6842
MYC,1297.178,533.0778
HER2,560.9592,533.8673
RAC1,1160.833,539.2273
SOX2,1932.136,539.864
BAG1,910.4309,542.0732
VIM,1596,544.7262
RPLP0,724.5546,545.5042
ACTB,1162.175,548.4035
TP53,994.4789,552.162
GAPDH,1958.081,553.4485
ACTB,1714.718,560.4809
ACTB,1067.922,561.7778
VIM,1968.471,566.598
ACTB,938,572
RAC1,1687.863,577.9673
RAC1,1227.162,579.8851
VIM,1704.617,581.1358
VIM,275.4286,582.5
EPCAM,1540.881,583.4127
VIM,482.3077,589.8615
ACTB,1901.035,589.3488
VIM,1700.819,590.4468
RAC1,914.7692,593.3217
VIM,964.7069,595.5
RAC1,1647.735,599.1122
TP53,1175.977,601.1395
ACTB,1915.333,599.386
ST-3,1610.901,604.3964
ACTB,1089.924,605.5758
ACTB,1229.491,605.8482
GAPDH,1944.228,612.0351
ACTB,996.1429,613.0408
ACTB,1554.463,615.1098
ACTB,1223.368,615.6765
ACTB,1225.55,620.7
ACTB,1891.434,620.7377
ETV4,1606,622.679
TP53,818.625,624.1417
RAC1,1809.059,629.1111
VIM,1171.67,635.4128
MYC,483.2338,640.6883
GAPDH,1886.938,643.1546
ACTB,1923.283,644.3913
ETV4,1424.622,650.0833
MYC,589.567,652.2784
TP53,452.8154,652.6692
VIM,730.6413,653.0978
EPCAM,742.9091,653.5
EPCAM,738.1818,653.3182
MYC,1550.632,654.7847
EPCAM,436.0891,656.9406
ACTB,1158.847,666.6757
ACTB,498.046,667.8966
GAPDH,1309.595,666.9286
GAPDH,1314.773,668.96
VIM,1702.864,669.96
ACTB,753,672.5
TP53,792.3117,677.2338
MYC,1638.631,680.6312
ACTB,1683.951,686.4024
VIM,1712.5,687.7381
VIM,1427.712,692.3022
VIM,1233.816,699.784
ACTB,408.8732,710.2535
ETV4,1394.5,710
GAPDH,799.2121,710.1364
ACTB,1063.5,712.5
VIM,607.7282,715.932
GAPDH,1150,722.5
ACTB,1687.584,721.9351
VIM,594.1111,725.7222
EPCAM,1300.494,730.7229
VIM,1738.04,732.9444
ACTB,987.463,736.4074
RPLP0,1291.8,737.5091
CTSL2,824,738.5
VIM,1578.5,739.2432
EPCAM,746.3,739.6143
VIM,1747.679,739.0893
VIM,585.8776,741.4184
PR,1068,741.4318
ACTB,838,745.4954
ACTB,1658,747.8143
TP53,1506.111,750.9704
RAC1,1711.01,750.6569
RPLP0,986.392,755.944
TP53,1703.943,757.123
CCND1,1184.444,765.6944
ACTB,620,767.2031
TFRC,1094.375,767.1442
ACTB,1739,767.2909
VIM,950.3514,768.5676
VIM,1870.255,771.0191
EPCAM,1137.876,773.5619
GAPDH,1110.56,774.3067
HER2,965.6491,775.8947
RAC1,1092.17,778.2766
ACTB,1203.175,783.2698
ACTB,1836.951,785.9106
TP53,1124.65,796.2143
VIM,1272.569,796.8692
ACTB,1501.736,799.3302
VIM,612.6173,801.8642
RAC1,564.9138,809.931
TP53,1698.201,809.597
TP53,1483.241,810.1724
VIM,1809.626,813.0957
ACTB,855,814.8929
MYC,770.7257,817.0354
ACTB,852.7069,821.3276
VIM,1500.033,831.4333
VIM,959.2712,833.178
RPLP0,1205.108,833.3293
GAPDH,987.8846,835.5538
VIM,1268.828,840.4754
VIM,1364.234,841.8404
ACTB,1947.932,846.2373
ACTB,1941.73,848.3371
ACTB,1558,850.5
ACTB,1018.086,851.4609
TP53,1222.5,859.5
GAPDH,811.3415,861.3415
VIM,1980.356,861.1611
VIM,875.5395,863.1184
ACTB,1032.12,862.8804
ST-3,1143.701,864.1818
ACTB,752.3761,866.7523
ACTB,1309.846,868.1538
VIM,575.9412,869.1529
ACTB,1928.081,869.4485
ACTB,1337.838,871.0441
RAC1,247.5,877
ETV4,741.1194,878.3582
ACTB,1195.344,878.1311
VIM,702,887.5
RPLP0,1649.171,887.6986
GAPDH,1750.857,888.2653
ACTB,1452.657,893.3143
RAC1,1901.699,892.3451
RPLP0,1752.241,895.1609
ACTB,1120.008,898.3333
BAG1,1168.257,900.2294
ACTB,1886.709,904.4188
VIM,1636.319,910.5217
ACTB,1912.802,913.4257
VIM,1829.286,915.5
GUS,783.5625,917.3482
KI-67,1262.344,917.4426
CTSL2,1202.95,920.215
ACTB,1218.524,925.2439
GAPDH,550,927
ACTB,1139.862,929.1379
GAPDH,1198.452,932.629
RPLP0,1704.872,932.3221
ACTB,1156,939
VIM,1439.778,940.2963
RAC1,1755.84,944.32
ACTB,1869.16,944.1605
ACTB,1705.035,945.4419
ACTB,1771,948
BAG1,433.5,950
VIM,1709.356,951.6333
ACTB,493.9478,951.3582
OCT4,1984.063,958.0486
ACTB,1703.835,959.3924
VIM,1507.731,960.4538
GAPDH,623.6667,961.8596
ACTB,1328.727,968.7273
VIM,1969.465,970.2153
ACTB,1679.028,972.0704
HER2,900.7838,974.2342
GAPDH,1678.431,978.7231
RPLP0,1909.242,978.7778
VIM,1684.341,982.25
ACTB,1810.634,989.6338
VIM,1622,990.7364
ACTB,767.2015,1000.097
RAC1,1580.745,1000.138
VIM,1398.015,1010.485
GAPDH,1067.038,1013.99
MYC,751.4375,1017.703
ACTB,1571.213,1029.532
RPLP0,1873.628,1029.942
GAPDH,648.398,1034.959
VIM,806.7586,1037.638
RAC1,690.0566,1042.594
TP53,721.916,1047.145
RAC1,1241.784,1048.864
CTSL2,764.3964,1052.649
TP53,1454.032,1052.532
EPCAM,718.2833,1058.675
VIM,1958.361,1059.892
GAPDH,1203.781,1074.329
VIM,727.9603,1085.54
VIM,1795.243,1085.5
VEGF,661.8119,1088.01
GAPDH,1832.727,1088.977
ACTB,669,1091.644
TP53,1227.841,1094.413
CCND1,725.2353,1098.092
VIM,652,1100.5
KLF4,1578.322,1107.14
ACTB,778.4545,1114.591
RAC1,1840.733,1117.931
VIM,819.3662,1119.366
ACTB,1191.5,1123.212
TP53,1093.937,1130.286
MYC,1112.864,1130.617
RPLP0,1944.563,1143.272
GAPDH,1056.667,1145.421
TP53,1276.273,1149.686
VIM,1957.559,1151.828
MYC,1509.196,1157.717
ACTB,1327.33,1159.736
VIM,1944.221,1164.442
VIM,1258.377,1165.377
VIM,1950.377,1168.208
ACTB,749.5484,1180.113
VIM,1157.746,1180.61
ETV4,1835.624,1185.038
VIM,775.5882,1188.397
RAC1,1792.131,1189.656
CTSL2,1778.299,1191.103
GAPDH,1224.917,1193.031
ACTB,1766.349,1198.616
ETV4,1853.622,1199.455
VIM,815.2786,1205.036
VIM,1714.78,1205.087
GAPDH,232.9091,1207.636
ACTB,600.629,1218.452
ACTB,741.4783,1219.536
GAPDH,1869.911,1240.376
HER2,1944.926,1242.722
ACTB,1318.283,1254.34
ACTB,1313.659,1260.659
VIM,1177.837,1262.633
RAC1,804.8212,1277.768
VIM,1659.361,1277.639
GAPDH,1576.456,1282.184
RAC1,708.8916,1289.223
VIM,1990,1298.5
GAPDH,367.9057,1305.755
GAPDH,364.9474,1310.158
ACTB,1511.706,1317.706
ACTB,1504.197,1319.718
GAPDH,685.4533,1347.42
ACTB,1632.792,1350.167
RAC1,1838.667,1350
HER2,1625.736,1351.142
VIM,1835.861,1359.348
VIM,1848.772,1365.829
ACTB,1576.463,1392.378
MYC,1538,1394.315
ACTB,1966.511,1393.418
CCND1,1836.911,1397.789
ACTB,514.9844,1400.078
TP53,680.5283,1399.896
HER2,1402.7,1403.678
PR,1656,1403.922
RPLP0,1893.57,1414.911
VIM,1553.967,1422.52
ACTB,1531.835,1439.965
TP53,1183.382,1443.494
TP53,1502.956,1450.894
GAPDH,1787.206,1451.113
GAPDH,1808.843,1451.343
GAPDH,1775.837,1454.375
VIM,1650.597,1464.95
VIM,673.3221,1471.208
VIM,1013.667,1482.846
MYC,1978,1487.113
VIM,504.8673,1488.133
VIM,634.3053,1495.842
ACTB,1571.388,1496.175
ACTB,940.7778,1498.758
GAPDH,1924.265,1506.529
BAG1,639.4054,1515.946
ACTB,1648.383,1525.864
GAPDH,1813.114,1525.843
OCT4,1936.683,1526.733
ACTB,1511.829,1531.13
TP53,1847.5,1538
GAPDH,1978.543,1539.609
GAPDH,1980.091,1545.758
VIM,44.1049,1546.133
ACTB,1900.301,1546.345
VIM,1352.88,1549.12
ACTB,759.375,1560.042
ACTB,583.2642,1561.594
VIM,1620.927,1561.847
VIM,1792.19,1565.333
GAPDH,1857.455,1564.621
ACTB,1707.9,1566.291
ACTB,447.8036,1570.839
RPLP0,1017.163,1571
GAPDH,1503.476,1577.937
GAPDH,1912.336,1577.182
GAPDH,1876.889,1579.697
RPLP0,1973.527,1583.63
RPLP0,131,1586
GAPDH,1966.79,1593.134
ACTB,1523.377,1604.377
ACTB,1876.506,1603.928
TP53,1951.846,1604.636
VIM,1589.985,1608.321
ACTB,1968.622,1610.927
TP53,1978.476,1612.782
ACTB,217.9167,1619.5
ACTB,1770.658,1630.747
VIM,520.1136,1638.295
ACTB,1758.82,1640.713
TP53,1891.982,1649.061
ACTB,1785.826,1651.413
VIM,1611.455,1659.591
ACTB,1445.37,1661.852
ACTB,218,1667.113
ACTB,1443.227,1666.5
VIM,806.6327,1667.837
RPLP0,1837.471,1676.719
VIM,1575.456,1679.798
GAPDH,1651,1679.709
ACTB,1459.5,1683.75
VIM,1555.04,1684.864
VIM,1676.282,1685.103
ACTB,1648.902,1688.561
RAC1,1810.5,1692
VIM,643.6,1693.8
RAC1,1921.471,1695.676
VIM,1700.119,1700.642
ACTB,97.31169,1702.481
VIM,463.9358,1715.138
ST-3,1752.663,1718.945
RPLP0,1644.949,1720
ACTB,180.8333,1726.596
TFRC,21.60638,1727.766
ACTB,540.9778,1730.167
ACTB,663.2,1735.414
ACTB,679.8791,1737.396
VIM,1734.596,1739.596
RAC1,509.5294,1740.559
RAC1,563.0833,1740.538
ACTB,604.2714,1745
ACTB,1740.64,1744.93
VIM,1581.285,1747.949
GAPDH,1883.582,1757.253
ACTB,384.5,1761
ACTB,87.23377,1769.312
VIM,373.5,1770.5
MET,453.2443,1770.901
ETV4,1781,1774.589
ACTB,404.102,1777.949
VIM,379.5887,1780.163
RAC1,40.5,1782.5
VIM,1890.993,1785.733
MYC,463.8,1792.42
ACTB,58.46154,1798.808
RAC1,826.0786,1796.279
VIM,640.6164,1798.945
RAC1,1909.092,1799.966
GAPDH,340.1484,1803.367
MYC,759.5909,1805.455
RAC1,1749.412,1806.802
VIM,641.473,1810.878
ACTB,397.313,1813.643
CTSL2,1790.549,1814.941
ACTB,637.7879,1819.5
ACTB,695.3936,1822.723
RAC1,78.63768,1826.007
RPLP0,1823.892,1826.934
VIM,514.0444,1832.278
ST-3,1790.667,1831.643
ACTB,525.5733,1839.147
VIM,888.4455,1838.059
GUS,61.45283,1840.594
VIM,1915.5,1842.364
VIM,77.46154,1844.5
VIM,639.1318,1844.132
ACTB,517.5667,1846.733
VIM,22.95,1848.95
RPLP0,1900.371,1849.629
MYC,28.58065,1854.548
VIM,1981.745,1856.4
ACTB,343.4909,1861.327
TP53,1934.982,1860.738
VIM,144.6316,1871.149
RAC1,388.8966,1874.954
CTSL2,753.3986,1874.628
VIM,404,1883
MYC,626.2571,1884.086
TP53,126.8462,1889.524
MYC,630.6176,1888.206
HOXB7,858.2449,1892.684
ACTB,1797.138,1892.862
GAPDH,415.5,1897
RAC1,118.3366,1900.02
ACTB,463.6293,1901.043
TFRC,83.87898,1913.885
ACTB,13.45833,1916.875
ACTB,377.7556,1926.611
VIM,72.33636,1932.255
ACTB,276.0714,1933.442
VIM,642.3039,1936.627
GAPDH,124.6043,1949.446
VIM,1940.582,1952.049
VIM,84.32692,1953.692
MYC,462.9,1954.709
ACTB,499.439,1955.447
VIM,78.55128,1958.744
ACTB,1536.505,1960.667
GAPDH,1735.897,1963.954
ACTB,590.0333,1982
RAC1,160.7712,1984.824
ACTB,1400.169,1986.143
RAC1,509.973,1991.153
VIM,941.1111,1990.481
HER2,3970.566,12.24096
RAC1,3718.577,26.82927
TP53,2599.342,28.17391
TFRC,3373.894,31.03191
CTSL2,3917.884,30.24419
VIM,3394.294,38.91765
HER2,3643.763,40.4
MYC,2733.138,46.86207
HER2,3918.855,51.42029
CTSL2,3925.009,71.00909
ER,3656.366,75.3662
MUC1,3893.543,78.35099
RAC1,2078.73,82.73016
GAPDH,3905.661,94.01786
HER2,3625.055,97.29091
ACTB,3931.928,98.27711
GAPDH,2374.082,99.89726
ACTB,3669.536,101.599
VIM,3817.929,106.0714
VIM,2035.847,127.8471
CTSL2,3955.287,132.0902
ST-3,3718.906,132.875
KI-67,2727.969,138.3543
MUC1,3947.086,139.2286
ACTB,2296.366,140.6951
VIM,3130.5,155.2619
GAPDH,3997.435,158
GAPDH,2324.245,161.0566
RAC1,3145.625,173.375
ER,3692.262,176.0671
ACTB,2035.551,182.486
CTSL2,3963.64,183.1
CTSL2,3945.02,186.9733
ACTB,2907.341,191.6585
ACTB,2865.973,195.0636
CTSL2,3917.629,193.2335
CTSL2,3959.994,196.6534
HER2,3629.639,197.0648
GAPDH,3592.656,202.1311
HER2,2807.835,211.0941
CTSL2,3940.167,214.0806
VIM,3473.5,220.5
VIM,3759.81,223.7143
VIM,2858.568,228.4
HER2,3946.493,240.3944
CTSL2,3938.562,239.6777
ACTB,2326.804,243.75
ACTB,3420.093,243.9767
TP53,2386.192,244.7167
RAC1,2053.39,245.8766
VIM,2202.03,251.9248
ST-3,3631.931,258.0196
RPLP0,2460.284,262.2388
ACTB,2082.732,278.4433
MET,2822.578,287.3735
GAPDH,3004.267,297.6667
RAC1,3226.97,310.5909
VIM,3325.992,312.2632
ST-3,3687.247,319.1467
CTSL2,3917.527,322.8602
MYC,2122.412,331.2456
RAC1,2246.602,332.2712
GAPDH,2935.979,340.1134
ACTB,2316.609,344.3913
HER2,3969.758,357.3065
HER2,3972.273,362.8727
TP53,2965.314,363.9571
TP53,2506.106,368.9353
HER2,3990,369.5
ACTB,3783.945,376.7402
ACTB,3789.083,382.0833
VIM,2130.726,396.7611
ACTB,3477.14,406.1183
ACTB,3987.906,407.3529
RAC1,2272.287,415.7133
VIM,3592.325,422.25
VIM,2235.432,427.137
BAG1,2181.5,441.7069
ACTB,2852.333,442.614
RAC1,3589.244,447.9008
ACTB,2329.647,475.5882
ACTB,2251,480.2917
VIM,3304.5,480.5
ACTB,2223.911,482
TFRC,2958.421,482.7025
GAPDH,2320.867,489.0778
ACTB,2073.052,491.3377
ACTB,2069,496.0645
TP53,3502.946,495.5538
TP53,2200.554,502.4194
GAPDH,2086.338,508.3377
VIM,2830.975,514.8607
ACTB,2028.059,524.8235
ACTB,2024.118,525.7647
ACTB,2252.265,532.6865
ETV4,2465.034,534.3966
CTSL2,3134.562,533.6923
VIM,2361.523,537.1016
ACTB,2341.918,539.1455
ACTB,2215.778,540.9048
ACTB,2332.328,540.44
VIM,2196.663,547.8587
TP53,2210.849,550.2138
GAPDH,2119.183,552.8702
ACTB,2253.88,554.8804
VIM,2174.35,559.65
TP53,2361.616,574.2326
HER2,2394,577.6667
VIM,2236.406,579.2642
BCL2,2078,579.7364
ACTB,2137.255,579.6788
RAC1,2215.652,581.3038
VIM,2092.435,583.0507
ACTB,2786.748,584.009
VIM,2901.449,590.398
CD68,2029.173,597.5324
MYC,2306.216,600
RAC1,2204.59,602.1642
VIM,3987.238,602.5
VIM,2425.655,604.2566
RAC1,2285.693,616.4964
TP53,2088.488,625.2062
ACTB,2667,626
ACTB,3128.548,627.137
VIM,2438.605,632.4737
TFRC,2498.433,633.8955
VIM,3070.5,634
RAC1,3214.672,640.1897
ACTB,2458.862,641.1379
RAC1,2202.408,641.9184
ST-3,3954.825,645.375
RAC1,2220.5,647.451
VIM,2340.103,664.9448
RPLP0,3839.382,671.2618
GAPDH,3211.154,671.8462
VIM,3644.555,672.6646
ACTB,2687.655,673.3009
ACTB,2328.347,677.314
ACTB,3868.952,676.0397
RAC1,2368.3,680.22
ACTB,2953.333,684.0333
VIM,2056.582,685.5574
RAC1,3383.582,694.4658
ST-3,3790.514,693.8378
RAC1,3890.752,694.3931
ST-3,3993.401,702.1914
VIM,2126.167,700.3182
ACTB,2960.641,712.5156
ACTB,2954.229,717.8125
RPLP0,2173.044,727.7222
ACTB,2736.735,729.1084
VIM,2988.273,728.7273
VIM,2442.5,733.625
GUS,3975.362,732.9468
ACTB,2646.37,738.25
CD68,3114.274,741
ACTB,2298.46,743.6533
GAPDH,3563.146,743.878
GAPDH,2257.153,750.9412
VIM,2826.446,766.1818
HER2,3922.974,767.2338
GAPDH,3804.685,767.7697
VIM,2249.931,771.771
ACTB,2855.8,770.0737
ACTB,2751.519,776.1899
VIM,3660.766,780.026
ACTB,2615.805,780.5366
ACTB,3738.291,781
RAC1,2125.682,781.7947
ACTB,2817.63,783.4932
ACTB,2340.616,784.6518
ACTB,2158.25,786.5
ACTB,2198.723,790.7568
VIM,2247.605,791.6512
TP53,2666.957,790.7826
GAPDH,2093.068,791.7881
ACTB,2133.631,792
ACTB,2900.518,795.4
VIM,2888.585,796.8659
TFRC,2871.956,799.3894
VIM,2368.862,804.1379
ACTB,3148.866,803.1946
ACTB,2568.75,804.3929
GAPDH,2128.858,805.4717
CTSL2,2381.103,805.0632
VIM,2559.532,807.619
ACTB,2669.175,815.6893
TP53,2886.074,815.1296
BAG1,2840.71,816.6022
VIM,3486.387,817.5474
ACTB,3507.953,817.7907
VIM,2418.089,820.9512
ACTB,3505,821.7778
GAPDH,2033.128,824.8073
ER,2818.259,824.637
TFRC,2659.591,825.2348
ACTB,2351.372,826.6393
VIM,2841,829
RAC1,2040.25,829.8125
HER2,3146.723,835.9496
VIM,2908.31,837.6379
VIM,2134.262,839.8197
GAPDH,2173.545,842.2909
TFRC,2375.817,842.9512
ACTB,2139.088,845.4412
VIM,2867.172,845.331
ACTB,2431,847.744
VIM,2812.717,848.0094
GAPDH,2060.333,848.1333
GAPDH,2895.706,850.156
GAPDH,2484.241,854.931
RAC1,2781.076,855.2214
RAC1,2056.643,856.5175
TP53,3877.153,856.75
VIM,3866.298,858.7024
VIM,2129.479,860.5043
MET,2287.405,861.4762
TP53,2067.429,867.6178
VIM,3151.5,868
CTSL2,2092.642,868.3709
CCND1,2261.544,870.2647
MUC1,3228.439,878.5909
VIM,2752.634,880.3662
ACTB,2657.109,885.587
TFRC,2597.629,888.5776
GAPDH,3957.323,889.6559
HER2,2851.3,893.7
VIM,2338.3,899.5
ACTB,2800.265,903.8916
GAPDH,2527.891,904.7815
ACTB,2967.287,905.3519
TP53,2564.206,907.8061
ST-3,2765.143,908.4
VIM,2902.692,912.8881
ACTB,2802,916.5
RAC1,2621.387,919.6831
VIM,2423.491,922.8728
GAPDH,2444.286,922.5
VIM,2829.601,922.0979
VIM,2928.803,923.0775
TP53,2858.224,924.8844
ACTB,2526.905,933.027
ACTB,2302.762,932.5446
GAPDH,2053.961,938.0395
ACTB,2742.5,937.2115
ACTB,2164.398,938.494
RAC1,2936.136,938.864
ACTB,2152.133,940
CTSL2,2135.306,941.5
ACTB,2173.788,941.6496
ER,2560.815,942.9556
RPLP0,2278.637,943.9
ACTB,2716.659,945.3415
VIM,2282.369,956.5676
ACTB,2793.366,957.3662
VIM,2723.309,959.9706
BAG1,2129.811,961.5909
RPLP0,2499.451,961.1543
TFRC,2602.125,960.825
ACTB,2815.568,963
BAG1,2094.26,964.2047
TP53,2625.701,967.467
CCND1,2648.19,968.06
ACTB,2818.164,967.6727
EPCAM,2600.905,969.25
ACTB,3375.726,972
RPLP0,2458.142,976.4583
VIM,2660.504,980.2519
ACTB,3222,983.9029
TP53,2628.444,985.4675
ETV4,2081.986,986.471
RPLP0,2451.422,986.8
RAC1,2739.548,991.4113
EPCAM,2097.6,991.9083
ACTB,2279.5,991.5
ACTB,2533.118,992.2205
ACTB,2425.569,993.3212
ACTB,2165.565,999.6377
ETV4,2496.718,999.0412
CCNB1,2458.181,1000.019
ACTB,2859.532,999.7163
GAPDH,2134.174,1001.413
ACTB,3003.778,1001.833
ACTB,2736.254,1002.933
RAC1,2371.694,1008.759
ACTB,2575.119,1008.337
MYC,2641.165,1008.374
VIM,2920.376,1009.312
ACTB,3633.932,1008.873
ETV4,2476.894,1012.098
VIM,3209.941,1009.847
VIM,2838.261,1013.235
ACTB,2579.927,1015.313
ACTB,3261.354,1015.031
ACTB,3064.623,1016.857
CCND1,3144.878,1024.862
ACTB,2412.524,1026.702
ACTB,2491.113,1029.814
CCND1,2692.293,1030.796
ACTB,2706.076,1031.432
GAPDH,3901.41,1034.149
TFRC,2996.649,1036.144
RAC1,3002.81,1036.776
VIM,2698.907,1039.628
ACTB,2336.111,1039.643
RPLP0,3053.406,1039.524
ACTB,2212.623,1043.377
VIM,2223.135,1043.683
GAPDH,2551.907,1042.926
ACTB,2236.526,1047.298
ACTB,2424.784,1045.412
VIM,2898.25,1046.5
GAPDH,2053.083,1047.464
ACTB,2778.319,1050.754
ACTB,3992.127,1051.821
ST-3,2702.791,1055.372
ACTB,2946.88,1056.12
ACTB,3745.571,1057.829
ACTB,3894.273,1060.364
TP53,2053.727,1063.073
GAPDH,2078.015,1065.679
VIM,2635.408,1068.831
ACTB,2787,1074
ACTB,2877.918,1076.173
ACTB,2871.165,1079.423
GAPDH,3130.387,1081.29
VIM,3140.667,1082.957
ACTB,2916.119,1087.358
ACTB,2842.171,1092
VIM,3828.056,1093.373
RAC1,2025.81,1095.259
ST-3,2696.5,1098
VIM,2861.114,1097.278
VIM,2661.242,1102.652
VIM,2130.5,1103.5
ACTB,3009.585,1104.763
ACTB,3851.056,1107.86
ACTB,2768.134,1109.577
VEGF,2788.482,1110.696
ACTB,3368.448,1123.575
ACTB,2813.306,1125.157
GAPDH,2166.542,1128.708
ACTB,2852.616,1133.233
VIM,2651.929,1134.303
VIM,2542.302,1143.119
VIM,3682,1144
ACTB,2970.617,1145.136
BAG1,2923.245,1148.622
TFRC,2461.981,1152.357
ACTB,3200.667,1152.8
VEGF,3146.843,1155.38
RAC1,3234.452,1156.761
GAPDH,2255.045,1161.705
RAC1,3006.62,1162.255
GAPDH,2261.281,1163.922
ACTB,2702.138,1165.862
GAPDH,2600.163,1169.084
ACTB,2577.402,1173.763
ACTB,2677.071,1172.857
VIM,2722,1173.5
ACTB,3153.869,1177.656
ACTB,2138.455,1178.9
ACTB,2729.821,1183.881
VIM,3348.33,1185.394
ACTB,2737.378,1185.5
TP53,2921,1188.264
VIM,2962.188,1188
RAC1,3088.723,1187.485
CCND1,2723.063,1191.031
HER2,3690.165,1190.893
CTSL2,2373.7,1194.3
GAPDH,2525.233,1194.726
VIM,3094.853,1195.011
BCL2,3111.031,1194.454
TP53,2564.728,1194.785
ACTB,2732.821,1198.268
ACTB,2557.196,1199.304
VIM,2600.072,1201.309
ACTB,3112.688,1204.366
RAC1,2890.675,1205.365
RAC1,2955.736,1206
TP53,2720.164,1206.55
ACTB,2926.493,1208.125
ACTB,2788.298,1210.048
VIM,2179.221,1209.799
VIM,2648.975,1210.669
VIM,3170.5,1211
ACTB,2706,1214.203
ACTB,2573.944,1215.889
VIM,3223.275,1217.108
HER2,3076.429,1218.614
VIM,2537.591,1219.227
ACTB,3067.333,1223.36
VIM,2771.865,1224.656
VIM,2395.979,1225.831
ACTB,3488.371,1229.032
ACTB,2252,1232.5
ACTB,3839.698,1233.674
RAC1,3808.083,1237.208
ACTB,2854.613,1237.189
ACTB,2092.409,1237.97
VIM,3005,1239
ACTB,2471.917,1241.625
GAPDH,2783.1,1245.34
VIM,2708.5,1248.5
ACTB,2859.056,1249.247
VIM,3737.592,1250.231
BCL2,3829.113,1249.828
ACTB,2719.257,1257.991
RPLP0,3793.5,1259
MUC1,2414.281,1262.439
ACTB,3784.238,1266.874
ACTB,2108.859,1273.337
VIM,2558.279,1277.214
ACTB,2914.24,1280.837
ACTB,2456.277,1283.931
ACTB,2772.474,1285.395
RAC1,3850.505,1285.097
VIM,3590.356,1286.522
VIM,3010.195,1288.823
ACTB,2751.917,1292.736
ACTB,3844.376,1295.965
VIM,3010,1300.435
CD68,2854.023,1302.947
HER2,3766.527,1305.209
ACTB,2753.5,1309
MYC,2910.071,1312.262
BCL2,2029.007,1313.336
ACTB,2818.315,1314.019
ACTB,2468.591,1315.924
ACTB,2256.945,1318.575
VIM,2526.975,1318.114
VIM,2370.154,1320.276
MYC,2828.716,1319.832
ACTB,3785.089,1319.978
ACTB,2268.486,1321.685
VIM,3436,1323.68
VIM,3442.875,1326.893
ACTB,3645.445,1325.16
ACTB,3786.471,1326.471
ACTB,2752.629,1328.343
BAG1,2653.312,1332.766
VIM,2526.953,1337.17
ACTB,2263.138,1339.308
ACTB,2627.634,1339.366
ACTB,2273.31,1341.599
ACTB,3011.4,1341.089
ACTB,2768.255,1341.447
ACTB,2550.504,1343.182
ACTB,3006.191,1344.17
ACTB,3316.341,1343.659
VIM,2838.212,1347.5
ACTB,2662.597,1348.014
VIM,2768.817,1349.442
VIM,3543.862,1349.257
EPCAM,2338.188,1349.703
TP53,2309.319,1354.723
ACTB,2387.086,1355.273
TP53,2759.099,1356.537
ACTB,2344.328,1360.362
VEGF,2963.273,1362.273
ACTB,2620.425,1362.569
ACTB,3786.287,1361.6
VIM,2827,1365.232
RAC1,3749.879,1364.864
ACTB,3790.03,1366.821
ACTB,2694.069,1366.277
ACTB,2722.605,1366.947
RAC1,3759.033,1368.219
VEGF,2364.714,1370.125
ACTB,3703,1370.107
BCL2,2375.167,1371.34
GAPDH,2993.371,1371.853
CCNB1,2289.864,1374.318
GAPDH,2171.753,1376.278
RAC1,3075.65,1379.28
GAPDH,2961.288,1381.123
GAPDH,2251.054,1381.91
TP53,2529.379,1382.871
ACTB,2379.386,1386.364
HER2,2252.385,1392.673
ACTB,2633.61,1393.18
VIM,2850.592,1392.344
GAPDH,2915.359,1391.077
VIM,3918.975,1393.342
ACTB,2321.08,1394.259
ACTB,2740.868,1397.245
ACTB,2913.39,1398.065
GAPDH,2321.778,1401.222
ACTB,3671.833,1401.379
GAPDH,2278.28,1404.28
GAPDH,2326.152,1405.065
VIM,2861.964,1406.232
ACTB,2101.456,1410.789
HER2,2263.697,1409.621
ACTB,2303.143,1412.543
ACTB,2889.235,1413.361
ACTB,2941.476,1414.417
RAC1,2258.064,1415.96
ACTB,3171.709,1414.864
GAPDH,2659.879,1416.841
VIM,2450.157,1417.132
TP53,2680.512,1419.975
ACTB,2837.538,1420.97
VIM,3852.844,1420.22
ACTB,3525.395,1423.018
ACTB,3941.932,1423.548
EPCAM,2230.577,1424.808
TP53,2313.646,1424.701
VIM,2921.087,1426.78
ACTB,3032.556,1427.531
VIM,2889.228,1428.894
GAPDH,2827.5,1432.871
VIM,3675.991,1433.454
VIM,2776.979,1440.697
GAPDH,2039.716,1441.819
EPCAM,2633.5,1445.183
ACTB,3505.371,1444.598
ACTB,3175.388,1445.588
VIM,3663.739,1444.522
RPLP0,2064.571,1446.429
ACTB,2684.538,1447.726
VIM,3139,1449
CTSL2,3462.353,1448.962
ACTB,3660.726,1450.435
CTSL2,2328.459,1452.09
VIM,3653.893,1453
VIM,3664.659,1456.466
GAPDH,3046.256,1458.465
CTSL2,3907.43,1458.658
GAPDH,2343.087,1461.536
GAPDH,2868.162,1459.901
ACTB,2899.618,1460.465
GAPDH,2684.797,1461
ACTB,2539.629,1463.695
ACTB,2710.265,1464.568
VIM,3163.109,1463.375
BAG1,2177.23,1468.943
ACTB,3521.865,1469.769
ACTB,3158.385,1470.738
CTSL2,2135.435,1472.139
GAPDH,2322.316,1473.325
TP53,2184.187,1477.225
GAPDH,2480.652,1476.841
ACTB,2679.634,1476.634
RAC1,3622.858,1478.189
GAPDH,2238.794,1479.426
GAPDH,2378.12,1478.42
VIM,2843.631,1479.73
TP53,2315.349,1483.571
ACTB,3175.235,1482.407
VIM,3522.512,1482.623
RAC1,3732.844,1485.333
ACTB,3159.306,1486.581
HER2,3624.245,1488.774
VIM,2957.206,1488.529
TP53,2692.041,1492.612
GAPDH,3627.52,1495.2
VIM,3536.609,1495.874
ACTB,2423.194,1496.806
ACTB,3160.072,1496.729
ACTB,2710.079,1497.446
GAPDH,3621.875,1498.643
MYC,3582.667,1501.912
HER2,3612.526,1509.605
ACTB,2210.809,1511.09
GAPDH,2494.5,1512.738
RAC1,3496.846,1513.154
ACTB,2116.418,1524.747
HER2,3651.788,1525.5
BCL2,3852.853,1524.973
RAC1,2514.459,1528.09
HER2,2150.728,1528.536
ACTB,2208.216,1528.81
VIM,2913.151,1528.699
ACTB,2591.766,1530.88
ACTB,3143.904,1532.216
CTSL2,2028.452,1532.167
ACTB,3443.622,1533.755
HER2,3617.118,1534.344
HER2,3943.465,1533.915
ACTB,2295.837,1535.375
HER2,3639.56,1534.799
RAC1,3845.371,1535.548
CTSL2,2026.814,1538.116
CTSL2,2032.412,1537.853
RAC1,2891.049,1538.465
CTSL2,3672.962,1539.952
GAPDH,3269.121,1541.182
VIM,2869.35,1542.517
ACTB,2947.929,1544.343
ACTB,3385.55,1545.061
HER2,3683.047,1547.488
BAG1,3691.405,1546.633
CTSL2,2809.464,1546.341
ACTB,2887.188,1547.347
VIM,3067.229,1546.924
CTSL2,3178.914,1547.057
ER,2150.704,1547.653
VIM,3340.549,1548.043
RAC1,3672.174,1549.826
VIM,2274.94,1549.905
RAC1,2112.76,1551.021
VIM,2496.5,1550.917
ACTB,3022.585,1553.195
ACTB,2985.29,1552.383
VIM,2170.218,1554.46
HER2,3903.472,1553.708
HER2,3909.911,1556.467
VIM,2743.269,1557.331
MUC1,3624.147,1559.51
BAG1,2192.217,1560.203
ACTB,2830.935,1561.887
VIM,2705.46,1563.102
HER2,3689.275,1562.7
VIM,2920.611,1564.944
RAC1,2951.862,1565.013
HER2,3677.374,1566.271
RAC1,3868.142,1567.594
VEGF,3495,1567.911
HER2,2027.916,1569.916
ACTB,3137.78,1569.913
TP53,3843.648,1573.019
RPLP0,2699.041,1573.429
EPCAM,3286.313,1574.297
ACTB,3652.713,1577.687
MUC1,3876.5,1584.431
ACTB,2207.841,1588.079
HER2,3329.475,1588.934
ACTB,3985.194,1595.806
VIM,2771.38,1600.046
ACTB,2567.571,1600.229
ACTB,2591.813,1602.724
EPCAM,3500.917,1603.182
ACTB,2562.732,1603.775
MYC,2384.5,1605.5
ACTB,2570.686,1605.353
ACTB,2800.314,1605.049
ACTB,2581.269,1605.858
CTSL2,3964.489,1604.444
ACTB,2273.679,1608.125
RAC1,2789.555,1607.398
CTSL2,3926.906,1609.676
BAG1,2188.103,1610.966
VIM,2833.463,1611.333
RAC1,3964.972,1611.204
VIM,2200.919,1611.449
VIM,2716.591,1611.455
HER2,3579.513,1611.886
ACTB,2754.406,1614.969
ACTB,2730,1616
ACTB,2776.5,1616.8
VIM,2811.02,1614.653
HER2,3913.09,1616.29
HER2,3919.071,1616.81
HER2,2150.421,1617.402
ACTB,2084.054,1618.011
VIM,2112.634,1619.549
ACTB,2813,1621.703
VIM,3759.791,1620.372
CTSL2,3858.838,1621.752
RAC1,2171.207,1622.707
ACTB,2544.5,1626.5
GAPDH,2495.727,1626.711
ACTB,2123.159,1627.963
ACTB,2642.629,1628.386
VIM,3352.756,1628.901
CCND1,2347.129,1629.971
ACTB,2437.714,1630.875
VIM,2812.486,1632.029
CTSL2,3614.226,1630.652
ACTB,2112.447,1635.404
RAC1,3000.908,1635.532
RAC1,2073.806,1637.194
ACTB,2482.806,1638.516
VIM,2816.138,1637.851
ACTB,2581.103,1637.603
VIM,3260.852,1637.178
TFRC,3338.604,1636.613
CTSL2,3899.73,1637.281
ACTB,2568.403,1639.022
ACTB,2683.426,1639.118
RAC1,2185.284,1639.181
VIM,3331.178,1640.559
HER2,3882.527,1642.27
VIM,2560.265,1643.867
ACTB,2745.576,1644.929
VIM,2349.684,1646.292
VIM,2981.283,1646.5
ACTB,3300.628,1646.453
RPLP0,2325.489,1647.557
VIM,2788.227,1648.08
TP53,2080.089,1649.829
HER2,3882.356,1650.394
HER2,2333.318,1651.682
ACTB,3079.338,1650.968
KI-67,2753.275,1652.275
ACTB,3173.092,1653.034
VIM,3360.545,1653.409
HER2,3959.875,1656.276
HER2,3060.864,1656.864
VEGF,2378.553,1657.684
ACTB,3656.833,1656.976
ACTB,2018.422,1659.672
ACTB,3662.395,1661.605
ACTB,3880.703,1659.311
TFRC,2846.111,1660.901
ACTB,2126.274,1663.104
ACTB,2758.802,1663.681
ACTB,2909.568,1663.307
ACTB,3655.341,1664.683
HER2,2470.562,1664.174
VIM,2991.213,1665.147
GAPDH,2262.389,1665.244
VIM,2719.23,1664.98
ACTB,3881.466,1666.759
GAPDH,2609.901,1668.216
RAC1,3123.865,1667.656
GAPDH,2538.016,1668.295
ACTB,3262.885,1668.631
ACTB,2444.922,1671.878
ACTB,2744.447,1673.702
VIM,2754.864,1672.745
TP53,2866.413,1674.627
TP53,3322,1676.779
ACTB,2604.632,1678.064
ACTB,2100.377,1678.377
ACTB,2464.656,1680.131
MYC,2771.672,1682.328
VIM,2791.304,1681.429
VIM,3413.092,1682.034
CTSL2,3368.464,1681.948
VIM,2420.139,1684.91
ACTB,2974.916,1686.786
ACTB,3199.123,1691.362
ACTB,2591.044,1695.324
RAC1,3515,1696.847
GAPDH,3951.427,1698.231
VIM,2729.622,1699.216
ACTB,2526.815,1698.756
ACTB,3030.868,1701.667
VIM,2479.423,1702.782
GAPDH,3432.69,1708.465
GAPDH,2157.617,1710.383
VIM,2738.826,1711.391
ACTB,2167.375,1712.507
TFRC,2349.439,1712.561
NANOG,3368.917,1713.992
ACTB,2192.591,1714.945
VIM,3884.913,1714.701
ACTB,2549.377,1717.149
ACTB,2068.14,1719.124
TP53,2085.2,1721.7
TP53,3321.219,1722.338
VIM,3063.145,1724.043
ACTB,2493.762,1727.032
ACTB,2772,1726.938
RPLP0,2791.581,1727.721
GAPDH,2078.131,1729.254
ACTB,2830.04,1729.109
BAG1,2386.65,1730.975
RAC1,3410.889,1730.111
MYC,3002.304,1732.482
ACTB,2374.244,1734.3
VIM,2722.56,1734.869
ACTB,3604.129,1735.147
ACTB,2703.409,1736.455
ACTB,2772.898,1737.102
RAC1,3829.239,1736.568
ACTB,2652.208,1739.248
VIM,2541.418,1742.764
ACTB,2662.055,1741.244
RAC1,3606.197,1743.909
VIM,2193.803,1747.307
VIM,2909.38,1747.08
VIM,3300.475,1748.602
ACTB,2606.063,1752.571
ACTB,2638.713,1751.943
EPCAM,2181.805,1754.195
VIM,2950.705,1756.792
GAPDH,2307.45,1756.65
ACTB,3556.58,1758.693
ACTB,2611.571,1760.384
ACTB,3018.102,1760.755
ACTB,3012.377,1762.792
RPLP0,2175.628,1762.992
ACTB,2337.626,1763.794
RAC1,2549.5,1764.5
VIM,2440.347,1767.421
GAPDH,2201.844,1771.611
TP53,2475.81,1773.71
BCL2,2493.897,1773.954
RAC1,2780.597,1777.305
GAPDH,2638.421,1778.516
ACTB,2661.868,1782.421
ACTB,3079.154,1782.154
BCL2,2134.573,1782.745
ACTB,2605.177,1783.544
MYC,2171.466,1785.089
ACTB,3962.706,1787.176
ACTB,2324.927,1786.74
RAC1,2791.154,1786.105
RAC1,2778.609,1789.246
VIM,3354.361,1789.639
CTSL2,3516.379,1791.545
ACTB,3621.856,1791.598
BCL2,2606.269,1798.444
ACTB,3622.723,1800.683
ACTB,2697.18,1803.759
TFRC,3033.5,1806
VIM,2582.255,1811.067
ACTB,2554.864,1811.617
VIM,2844.106,1811.636
HER2,3022.409,1810.97
ACTB,2885.646,1822.885
VIM,2730.064,1828.043
RAC1,3252.231,1828.769
ACTB,2429.941,1829.847
VIM,3058.234,1829.54
TP53,3100.397,1829.25
ACTB,2558,1831.095
GAPDH,2861.25,1831.5
CTSL2,3072.681,1831.522
ACTB,3839.031,1832.99
ACTB,2742,1837.5
ACTB,3863.783,1839.867
ACTB,2518.123,1839.525
CTSL2,2794.459,1839.248
VIM,2333.112,1840.957
ACTB,3227.288,1840.254
GAPDH,2853.598,1841.087
ACTB,3110.928,1842.5
ACTB,2454.227,1844.753
ACTB,2422.679,1846.197
ACTB,2506.467,1847.013
VIM,2791.151,1848.535
ACTB,2117.181,1852.958
HER2,3667.105,1851.695
ACTB,2215.733,1852.467
GAPDH,3607.367,1858.533
RAC1,3800.434,1858.182
RPLP0,2073.937,1861.768
VIM,2454.734,1864.609
ACTB,2311.793,1864.828
BAG1,3128.459,1865.09
RAC1,2334.956,1866.324
VIM,2446.802,1867.505
ACTB,2858.069,1867.153
ACTB,2314.533,1869.517
VIM,2439.967,1870.033
ACTB,2602.1,1871.9
VIM,3146.893,1873.379
MUC1,3856.318,1872.904
ACTB,2811.525,1873.287
CD68,2988.383,1879.136
RPLP0,2596.537,1880.282
BCL2,2417.842,1881.158
ACTB,2707.224,1882.69
ACTB,2679.618,1883.537
VIM,2324.727,1888.273
ACTB,2479.165,1888.171
VIM,3113.12,1891.88
RAC1,3502.365,1891.715
CTSL2,2532.048,1893.437
VEGF,3726.84,1894.687
HER2,2418.413,1897.826
RAC1,3521.595,1898.643
ACTB,2776.5,1900.5
VIM,2823.669,1900.692
ACTB,3754.219,1905.041
VIM,3145.5,1909.22
RPLP0,3875.093,1910.034
ACTB,3730.214,1916.186
BCL2,2717.254,1917.788
EPCAM,2904.763,1917.526
HER2,3835.456,1918.75
HER2,2111.745,1919.62
RPLP0,2541.95,1920.05
VIM,3222,1922
ACTB,3441.67,1920.736
VIM,3191.928,1923.732
HER2,3711.908,1925.582
TP53,2928.35,1928.35
HER2,3848.58,1926.4
HER2,3763.354,1930.354
ACTB,2624.1,1929.945
VIM,2116.277,1932.017
VIM,2758.756,1931.904
HER2,3848.379,1932.091
ACTB,2104.904,1933.07
VIM,2736.569,1938.886
ACTB,3422.085,1938.856
ACTB,2385.009,1938.655
ACTB,2774.278,1941.089
VIM,3256.426,1945.449
ACTB,2384.036,1947.679
RPLP0,2876.986,1947.403
HER2,2076.825,1949.175
VIM,2887.5,1952.5
HER2,3679.183,1951.467
HER2,2624.222,1952.993
ACTB,2595.781,1955.797
ACTB,3003.07,1959.132
CTSL2,3775.095,1966.237
VIM,3050.788,1968.932
ACTB,2745.333,1970.889
TP53,2277.497,1972.697
ACTB,2880.186,1975.01
ACTB,2549.456,1979.398
GAPDH,3044.054,1981.929
KI-67,2873.795,1982.366
TP53,3237.5,1982
ACTB,3833.631,1981.485
ACTB,2327.09,1984.85
VIM,3473.436,1986.761
ACTB,2036.031,1990.612
GAPDH,2830.548,1990.298
GAPDH,4520.639,8.583333
HER2,4277,9.290909
ACTB,4608.25,12.64773
CTSL2,4918.611,16.70992
HER2,4277.606,22.06383
GAPDH,5050.338,23.76154
GAPDH,4094.317,27.59167
RPLP0,4544.341,35.34146
HER2,4083.867,36.54335
RPLP0,4786.235,38.67647
RAC1,4826.087,39.04348
HER2,4070.578,42.27778
CTSL2,4793.414,43.72727
HER2,4109.959,44.39796
HER2,4257.113,45.03774
CTSL2,4960.107,45.46429
GAPDH,4859.547,48.31132
CTSL2,4998.495,50
ST-3,4898.938,49.05
CTSL2,4253.178,51.28814
CTSL2,4954.079,52.13333
GAPDH,4483.914,53.46094
CTSL2,4246.333,56.31429
GAPDH,4662.786,59.08397
GAPDH,4837.83,60.18
ACTB,4762.363,62.50549
GAPDH,4876.093,61.68519
GAPDH,4068.5,74.42857
CTSL2,4102.331,76.23077
ACTB,5204,76
HER2,4112.925,80.4
TP53,4708.764,80.62992
HER2,4916.156,83.5461
GAPDH,5180.835,90.63636
ACTB,4772.699,93.55639
VIM,4694.826,96
ACTB,4511.594,99.75362
EPCAM,4704.549,101.5
EPCAM,4090.684,103.4957
MYC,4933.413,104
RPLP0,4962.496,104.768
ACTB,4595.04,106.0667
RAC1,4505.026,110.1503
GAPDH,4411.24,114.58
MYC,4773.717,114.9667
ACTB,4317.952,118.1667
VIM,4046.011,119.6517
BAG1,5155.833,128.3333
ETV4,4722.958,129.2335
ACTB,4282.327,140.028
CTSL2,4077.27,144.0584
ACTB,5120.113,150.0206
HER2,4034.931,152.1897
ACTB,4017.47,159.7913
ACTB,5138.379,168.8932
MYC,4033.864,178.864
HER2,4226.298,182.2982
HER2,4227.98,187.96
ACTB,5128.527,186.4945
RAC1,4051.242,193.7578
ACTB,5120.709,201.6091
ACTB,5131.931,215.8966
ACTB,5140.26,216.6027
ACTB,4231.481,220.8365
HER2,4007.841,222.7197
HER2,4016.939,226.7959
ACTB,4244.968,228.6667
VIM,5151.796,233.5741
HER2,4035.263,235.1404
CCND1,5172.383,240.8642
ACTB,4537.519,257.962
GUS,5191.268,261.8592
ACTB,5048.241,271.1852
ACTB,4295.206,276.2059
RAC1,5219.458,293.0932
ACTB,5164.775,305.9735
HER2,4505.897,308.954
HER2,4013.91,317.2179
RAC1,4867.837,324.0465
VIM,4302.913,329.874
RAC1,4287.157,337.9429
CTSL2,4011.209,350.8174
ACTB,4053.936,366.5273
HER2,4033.681,365.8487
ACTB,4110.422,367.4667
ACTB,4580.638,369.9655
ACTB,4111.702,372.7021
VIM,5016.04,371.4653
ACTB,4277.208,374.232
EPCAM,5002.781,377.8667
ACTB,4090.102,380.4286
GAPDH,4284.597,383.5373
MYC,5053.702,388.6725
TP53,4066.368,388.5
ACTB,4590.731,393.6514
HER2,5104.468,393.1948
GAPDH,4023.746,397.7623
HER2,4999.338,396.8088
ACTB,4867,397
VIM,4311.656,397.8689
ER,5041.225,400.2246
HER2,4813.156,401.6875
EPCAM,4847.655,409.4483
EPCAM,4966.794,417.4926
GAPDH,5038.866,419.6045
VIM,4493,421.5
ACTB,4589.42,420.4
CTSL2,4896.449,424.1014
HER2,5025.103,426.6954
MUC1,5109,431.1538
GAPDH,5148.326,433.5217
HER2,5051.837,435.8618
CCND1,4827.274,437.2735
HER2,4798.971,437.3235
CTSL2,4893.282,441.5484
BAG1,4806.545,443.297
VEGF,4857.918,444.2951
HER2,4933.455,446.7946
CCND1,4041.859,447.0978
VEGF,4946.979,453.4894
GAPDH,4973.493,453.3731
HER2,4455.5,455.5
ACTB,4194.708,456.2292
CTSL2,4046.274,456.6918
HER2,4960.797,457.8943
HER2,4904.321,458.6786
CTSL2,4019.049,460.0894
HER2,4200.75,461.4444
MUC1,5111.623,461.7143
MUC1,5135.265,462.6387
HER2,4877.226,463.4717
VIM,5144.951,465.1111
HER2,4873.87,469.2609
GAPDH,4253,469.546
CTSL2,5154.882,471.7647
MUC1,5012.921,473.6848
MUC1,5108.624,480.9316
CTSL2,5150.307,483.2402
ACTB,4542.617,485.1358
HER2,4945.786,484.3286
ACTB,4779.494,485.2152
HER2,4021.348,486.6667
ACTB,4142.644,492.2466
HER2,4135.864,494.8864
EPCAM,5014.538,495.5054
RPLP0,5131.673,494.1122
HER2,4266.155,495.9381
ACTB,4762,498.2118
HER2,4896.244,500.4959
ACTB,4739.867,502.2667
HER2,4563.394,507.1613
RAC1,4754.537,510.9444
HER2,4988.64,510.2442
GAPDH,4499.008,512.05
ACTB,4737.416,516.5169
ER,5091.02,517.4118
ACTB,4732.636,520.3939
HER2,4870.063,521.1667
ACTB,5196.258,520.299
MYC,4743.365,521.4588
CTSL2,4859.559,522.9079
CTSL2,4943.124,523.4157
CTSL2,5051.757,524.7684
GAPDH,4010.695,527.2034
VIM,4872.104,530.2727
MYC,5038.255,529.7248
ACTB,4799.672,530.864
RAC1,4260.89,531.1009
ACTB,4857.803,533.8788
HER2,4303.376,534.256
CTSL2,5017.218,536.8013
TP53,4538.354,537.0315
CCND1,4841.128,536.4436
KI-67,5141.141,537.322
GAPDH,4261.79,538.871
ACTB,5180.301,539.3451
GAPDH,4919.85,544.925
ACTB,4736.172,546.5984
CTSL2,4841.833,549.6235
TFRC,5152.651,552.1977
MYC,4240.817,552.3945
HER2,4263.053,552.8
ACTB,5208.803,558.2879
VIM,4722.5,559.5
VIM,4175.704,561.669
VIM,5128.147,563.6121
RAC1,4899.861,564.5093
GAPDH,5153.922,567.3333
TP53,4403.737,568.0468
BAG1,5070.64,569.08
ER,4273.074,569.2
VIM,4807.232,585
ACTB,4168.184,588.4828
ACTB,4465.203,589.7188
GAPDH,4699.669,597.2034
RAC1,4830.275,597.8
ACTB,4340.616,602.5625
TFRC,4750.543,603.1466
ACTB,4598.194,604.806
VIM,4661.841,605.8146
VIM,4673.314,606.6381
HER2,5031.375,609.2813
ACTB,4513.669,610.1901
HER2,5036.936,613.8298
HER2,5033.976,618.9286
ACTB,4746.829,618.6857
CCND1,5155.312,619.6812
RAC1,4487.907,619.7867
ACTB,4839.376,620.8462
GAPDH,4634.234,621.4393
HER2,5041.829,622.6438
ACTB,4655.537,624.4179
TP53,4736.174,628.0348
HER2,5100.826,631.7174
HER2,5097.484,640.3906
RAC1,4889.172,652.2759
MYC,4829.195,654
GAPDH,5060.538,658.906
RAC1,4778.469,659.354
ACTB,4858.27,659.7956
ACTB,4964.971,661.2952
GAPDH,4743,663.5
HER2,4951.66,665.3007
VIM,4785.364,665.8131
ACTB,5003.5,665.5
ACTB,4874.882,680.1765
ACTB,4483.199,684.3676
ACTB,4827.865,693.5946
ACTB,4800.188,696.2917
ACTB,4570.904,708.234
GAPDH,4582.647,716.1579
ACTB,5168.982,716.7
MET,4153.932,718.3151
ACTB,4620.163,718.593
ACTB,4950.923,728.4038
ACTB,4018.433,733.2667
ACTB,4952.675,735.425
ACTB,4081.053,735.807
ACTB,4942.2,737.4286
ACTB,4114.563,739.5511
ACTB,5081.791,739.9535
ACTB,5084.176,745.3971
ACTB,4792.58,746.5
VIM,4947.575,747.9625
ACTB,4838.571,760.3714
CD68,4110.096,762.4468
GAPDH,4067.79,764.6452
ACTB,4738.674,766.4638
VIM,4841.548,767.8365
RAC1,4840.788,775.9293
ACTB,4859.5,778.5
MYC,4131.872,783.5046
VIM,4926.368,784.5517
ACTB,4737.286,789.4592
VIM,4389.418,795.4184
ACTB,4816.911,796.121
ACTB,4895.32,806.6067
MYC,4308.406,807
VIM,5111.5,809
VIM,4874.239,809.9403
VIM,4361.794,813.5
ACTB,4721.654,814.1969
ACTB,4864.883,814.6425
VIM,5181.657,814.8586
RAC1,5008.241,816.7235
VIM,5111.5,818.0303
ACTB,4874.897,818.931
GAPDH,4958.032,818.1104
ACTB,4882.682,820.2121
ACTB,4356.565,821.2672
ACTB,5178.013,821.7467
BAG1,4765.5,823.5333
ACTB,4967.257,821.9429
ACTB,5186.574,823.4043
VIM,4953.617,826.7128
VIM,5157.495,827.7664
ACTB,4838.121,832.7424
ACTB,5179.948,832.5862
RAC1,4669.427,838.1532
GAPDH,5182.64,839.19
TFRC,4842.051,844.8983
VIM,5064.909,844.6364
CTSL2,4630.241,846.9197
TP53,4884.792,847.6164
ACTB,4893.299,849.7013
ACTB,4718.482,852.5301
ACTB,4139.79,853.7097
ACTB,4847.138,853.2529
VIM,4973.233,856.3837
HER2,4571.906,863.8113
VIM,4497.963,867.1009
TP53,4735.527,865.9515
HER2,4574.18,869.88
ACTB,4934.5,868.6
ACTB,4777,870.7969
ACTB,4971.698,872.8255
VIM,4534,875.4831
TFRC,4865.009,883.3113
GAPDH,4624.538,897.5625
ER,4660.093,899.0619
VIM,4995.8,899.3
CD68,4072.5,904
MET,4194.769,903.8205
RPLP0,4589.472,904.8962
ST-3,4064.414,907.4368
VIM,5213.124,910.2547
RAC1,4632.971,912.7464
CTSL2,4173.534,917.4178
VIM,5082.732,928.3289
ACTB,5092.968,929.9355
ACTB,4622.271,936.8232
TP53,4635.884,940.9613
GAPDH,4784.859,948.5128
ACTB,5070.413,947.9038
TP53,5137.174,949.8767
VIM,5216.963,955.537
VEGF,5118.108,959.4706
ACTB,4794.795,960.4773
ACTB,5095.063,960.8239
ACTB,4619.448,963.1619
ACTB,4830.315,963.7244
RAC1,4372.637,968.1529
ACTB,5208.901,968.2469
RAC1,4275.522,970.3451
ACTB,4781.357,970.5714
ACTB,5214.25,971.6364
TFRC,4642.175,973.9126
ACTB,4443.29,975.6022
ACTB,5129.342,975.2532
KLF4,5118.219,978.2192
ETV4,4738.509,993.0741
ETV4,4745.928,997.824
VIM,4017.22,1010.64
HER2,4766.843,1009.322
VIM,5138.465,1009.969
ACTB,5142.899,1022.387
CTSL2,4676.181,1023.307
ACTB,5080.034,1025.431
MYC,4503.342,1030.829
RPLP0,4109.082,1033.032
VIM,5202.846,1033.336
CTSL2,4388.829,1035.922
HER2,4817.89,1039.878
GAPDH,4644.638,1041.879
ACTB,4779.49,1041.184
VIM,4825.312,1044.667
ACTB,5092.293,1046.654
RAC1,4517.797,1049
ACTB,5205.418,1051.588
ACTB,4691.633,1052.35
ACTB,5118.915,1053.195
ACTB,4744.398,1058.17
ACTB,4696.743,1061.5
VIM,5125.434,1060.717
ACTB,4364.872,1065.287
VIM,5122.132,1069.66
RPLP0,4321.268,1073.352
RPLP0,4316.821,1072.607
CTSL2,4870.587,1076.246
VIM,4716.938,1081.108
GAPDH,5163.054,1084.054
HER2,5095.292,1088.986
MYC,5084.799,1090.642
RPLP0,5172.6,1090.287
ACTB,4700.755,1094.049
ACTB,5076.111,1093.722
ACTB,5073.652,1098.783
ACTB,4392.506,1100.222
VIM,4624.344,1101.738
VIM,4304.5,1104.5
ACTB,4393.647,1106.059
ACTB,4398.353,1105.353
ACTB,4396.242,1110.758
ACTB,5226,1114
TP53,4396.745,1125.982
OCT4,5133.921,1129.279
MYC,4871.357,1129.268
RPLP0,5229.107,1136.182
GAPDH,4784.119,1142.624
ACTB,4386.338,1143.647
RAC1,5150.145,1147.162
VIM,4425.356,1149.837
ACTB,4207.371,1152.71
VIM,4648.184,1151.713
RAC1,4392.851,1153.475
ACTB,5051.5,1153.5
VIM,4629.574,1156.739
VIM,5010.449,1158.827
TP53,5006.031,1169.683
VIM,5000.065,1192.283
GAPDH,4208.263,1192.825
VIM,4571.465,1195.415
VIM,5113.48,1199.268
ACTB,4366.355,1207.882
ACTB,4360.814,1208.465
ACTB,4507.464,1210.098
ACTB,4942.35,1225.625
RAC1,4270.377,1227.377
ACTB,4693.875,1226.174
CTSL2,4181.235,1230.512
GAPDH,4155.302,1233.605
VIM,4941.832,1236.605
ACTB,4986.848,1238.438
GAPDH,5061.33,1237.693
VIM,5091.632,1238.669
ACTB,4272.198,1238.988
VIM,5039.3,1244.556
RAC1,4184.726,1244.548
VIM,4260.065,1245.548
ACTB,4535.616,1246.233
ACTB,4284.637,1246.714
ACTB,4134.73,1250.135
VIM,5014.5,1250.105
ER,4182.333,1252.704
VIM,4815.564,1254.127
CTSL2,4219.22,1258.087
RAC1,4808.945,1259.282
HER2,4180.663,1261.747
ACTB,4275.766,1262.29
RAC1,4996.293,1261.567
VEGF,5135.5,1262
ACTB,5090.11,1262.89
ACTB,4322.333,1266.487
VIM,4796.924,1267.496
ACTB,4268.621,1267.697
ACTB,4262.6,1270.169
ACTB,4682.075,1269.523
TFRC,4215.145,1271.887
ACTB,4554.086,1271.062
ETV4,4690.253,1272
ACTB,4323,1273.083
RPLP0,5043.77,1272.966
RAC1,4549.009,1277.279
TFRC,5106.606,1276.766
ACTB,4558.402,1285.471
ACTB,4315.846,1289.154
ACTB,5190.532,1291.103
TP53,4204.846,1290.705
ACTB,4326.96,1292.846
RAC1,4937.22,1294.087
CTSL2,4229.426,1295.081
CTSL2,4217.103,1302.119
RAC1,4366.073,1302.589
ACTB,5226.461,1307.801
CTSL2,4244.956,1323.919
GAPDH,4169.589,1324.589
ACTB,4525.407,1325.949
VIM,4914.273,1329.909
VIM,4913.67,1337.66
TP53,4995.843,1338
ACTB,4834.197,1338.457
BIRC5,4402.951,1339.911
HER2,4868.826,1345.043
BCL2,4846.948,1347.358
HER2,4298.489,1348.705
ACTB,5060.16,1349.21
HER2,4302.472,1356.925
VIM,4935.846,1357.272
ACTB,4706.29,1359.778
ACTB,4345.069,1362.621
ACTB,5090.331,1364.211
ACTB,4348.722,1368.185
TP53,5104.711,1375.063
TFRC,4523.84,1375.91
CTSL2,4921.047,1378.087
ACTB,5118.891,1378.13
ACTB,4754.819,1381.181
VIM,4829.915,1384.846
ACTB,4720.031,1390.735
ACTB,4539.25,1394.196
TP53,4479.211,1396.404
ST-3,4290.903,1407.952
TFRC,4939.41,1406.843
VIM,4940.657,1414.333
TFRC,4514.933,1415.8
HER2,4345.472,1419.539
GAPDH,5041.034,1418.416
ACTB,4659.911,1420.696
HER2,4283,1424.709
RPLP0,4775.582,1425.019
ACTB,4576.849,1428.839
ACTB,4638.217,1427.685
ACTB,4202.125,1428.554
HER2,4326.887,1428.113
HER2,4131.458,1429.839
CTSL2,4333.956,1430.588
TP53,4560.013,1431.359
BAG1,5054.678,1433.342
HER2,4380.946,1433.989
BCL2,4168.735,1434.892
HER2,4301,1434.456
RAC1,4783.138,1434.94
HER2,4383.659,1439.841
ACTB,5221.462,1440.188
HER2,4349.547,1442.653
ACTB,4781.185,1443.065
GAPDH,4948.937,1443.368
ST-3,4823.352,1444.883
GAPDH,4998.111,1446.384
GAPDH,4756.766,1448.096
GAPDH,4988.756,1448.437
VIM,5052.864,1449.25
ACTB,4681.74,1449.038
TP53,5029.188,1450.431
ACTB,5162.454,1451.868
MUC1,4178.482,1453.127
VIM,5148.116,1454.19
VIM,5054.755,1456.887
ACTB,4107.343,1455.929
ACTB,4946.27,1456.696
TP53,4338.219,1458.757
ACTB,5219.654,1457.907
CTSL2,4175.844,1460.578
HER2,4370.173,1463.615
VIM,5060.066,1466.145
HER2,4173.254,1467.866
HER2,4370.4,1468.6
VIM,4887.144,1468.918
ST-3,5025.571,1470.738
CTSL2,4367.589,1473.548
ACTB,5047.13,1472.2
ACTB,4071.698,1473.958
VIM,5017.571,1473.643
ACTB,4077.333,1478.333
HER2,4747.539,1484.023
ACTB,5206.707,1482.878
ACTB,4829.941,1487.525
VIM,4615.526,1487.553
ACTB,5107.458,1487.526
ACTB,5000.333,1489.157
VIM,4373.62,1489.255
ACTB,4991.917,1490.529
MUC1,4088.762,1491.114
EPCAM,4289.133,1492.95
VIM,5060.415,1493.268
CCND1,5031.736,1493
VIM,5055.754,1497.066
ACTB,5077.034,1497.523
ACTB,4260.263,1505.842
RAC1,5065.747,1507.315
GAPDH,5230.471,1508.843
GAPDH,5223.679,1511.393
HER2,4191.443,1512.479
RAC1,5079.511,1514.705
VEGF,4142.391,1516.522
HER2,4307.029,1517.265
RAC1,4789.547,1516.491
ACTB,4349.78,1517.78
ACTB,4339.779,1518.856
HER2,4198.05,1520.832
VEGF,4135.485,1521.843
HER2,4299.836,1522.808
GUS,4256.592,1523.638
HER2,4162.604,1525.213
HER2,4887.397,1524.534
VEGF,4277.223,1525.408
HER2,4893.305,1528.102
TFRC,5208.341,1536.341
CCNB1,4158.917,1538.303
HER2,4562.542,1540
HER2,4556.778,1539.083
ER,4177.809,1542.745
ACTB,4555.798,1545.417
ER,4181.405,1547.892
HER2,4389.827,1548.047
CTSL2,4292.427,1550.04
RAC1,5177.452,1550.119
ER,4866.641,1551.078
VIM,4104,1551.735
CTSL2,5146.885,1550.846
CD68,5213.6,1551.947
ACTB,4284.027,1555.259
HER2,4357.384,1553.5
ACTB,4697.714,1556.397
HER2,4322.748,1556.424
VIM,5189.721,1556.828
HER2,4829.37,1558.708
ACTB,4586.097,1560.849
RAC1,5025,1560.775
ACTB,4612.833,1565
TP53,5035.346,1564.598
HER2,4244.27,1565.514
ACTB,4956.637,1565.247
RAC1,4380.211,1567.158
GAPDH,4633.794,1567.879
ACTB,5027.082,1568.732
EPCAM,5007.274,1578.205
KI-67,4300.08,1580.956
VIM,4432.354,1582.031
MUC1,4343.508,1584.606
RPLP0,4977.465,1596.594
ACTB,5134,1597.232
GAPDH,5114.065,1597.516
VIM,4862.3,1602.175
GAPDH,5117.141,1603.254
VIM,4018.919,1616.149
VEGF,5074,1620.667
ACTB,4022.768,1623.478
HER2,4253.09,1622.172
RAC1,4363.213,1623.234
HER2,4994.6,1623.338
HER2,4959.082,1624.5
VIM,5137.05,1625.95
VIM,4679.197,1629.507
VIM,4900.574,1628.34
RPLP0,5049.897,1629.954
HER2,4259.869,1632.344
HER2,4940.388,1635.078
ACTB,5190.955,1633.932
ACTB,5185.918,1638.557
HER2,4265.236,1640.125
CTSL2,5083.174,1640.462
VIM,4479,1643.421
HER2,4943.877,1644.358
CCND1,4112.152,1646.99
ACTB,4951.75,1648.25
CD68,4496.04,1649.109
VIM,4441.797,1650.992
BIRC5,4403.081,1651.469
ST-3,5194.959,1650.429
HER2,4118.301,1654.142
ACTB,5153.051,1654.923
HER2,4970.13,1658.587
ACTB,4950,1660.59
MUC1,4310.079,1662.279
CTSL2,5203.391,1663.739
ER,4991.224,1664.561
CTSL2,5072.699,1663.821
ER,5008.375,1666
ACTB,4260.633,1666.837
KLF4,4224.142,1669.196
CD68,4453,1673.5
GAPDH,4970.62,1678.194
VIM,4623.554,1678.752
ACTB,5128.294,1680.5
HER2,4960.304,1683.681
GAPDH,4314.24,1685.188
HER2,4964.244,1688.111
TP53,4572.364,1688.916
EPCAM,4589.808,1689.025
STK,4950.158,1689.592
HER2,4304.33,1689.879
ACTB,4715.706,1691.137
HER2,4964,1693.565
CTSL2,4342.782,1693.106
TP53,4723.356,1697.728
ACTB,4109.103,1697.462
VIM,5210.3,1703.756
ACTB,5157.463,1704.378
GAPDH,4067.983,1703.974
ER,4630.256,1705.272
CTSL2,5093.276,1705.578
GAPDH,4312.774,1706.583
HER2,5003.246,1706.903
MYC,4055.458,1708.449
GAPDH,4316.25,1712.417
VIM,4521.114,1712.157
ACTB,4957.324,1711.514
GAPDH,4061.633,1713.456
ACTB,4960.5,1715.036
HER2,4038.957,1715.394
ACTB,4570.954,1714.938
GAPDH,4027.661,1716.714
EPCAM,4220.927,1720.624
TP53,5103.33,1720.234
RAC1,4086.683,1722.382
HER2,4306.609,1721.745
CTSL2,4567.732,1723.437
CTSL2,5085.778,1725.844
ER,4588.9,1725.823
GAPDH,4439.794,1728.423
VIM,4808.858,1728.735
ACTB,4075.28,1730.024
ACTB,4832.493,1729.985
CTSL2,4455.485,1732.934
MYC,4586.176,1734.25
ACTB,4835.299,1736.571
HER2,4029.451,1738.549
CTSL2,5023.438,1738.74
CCND1,4646.516,1740.849
RPLP0,4023.387,1743.699
EPCAM,4574.291,1746.266
CTSL2,4589.255,1745.075
ER,4755.5,1746.667
GAPDH,5063.216,1748.351
HER2,5114.5,1748.243
ACTB,5142.557,1749.046
HER2,4377.92,1751.33
BAG1,4638.182,1750.986
ACTB,4311.976,1752.646
GAPDH,4390.446,1754.331
GAPDH,4620.217,1753.698
ACTB,4251.065,1754.435
CTSL2,5056.019,1754.994
GAPDH,4983.547,1755.42
VIM,4446,1756.5
CTSL2,4573.389,1758.638
ST-3,5141.557,1759.443
VIM,5155.622,1761.611
CTSL2,4364.87,1761.826
HER2,5166.1,1763.108
CTSL2,4369.012,1768.086
RAC1,4497.246,1766.319
HER2,4119.138,1767.724
GAPDH,4868.871,1768.671
HER2,4890.369,1768.676
KI-67,4948.418,1768.466
GAPDH,5007.66,1768.293
BIRC5,4693.304,1769.964
TFRC,4824.618,1769.299
HER2,4125.466,1771.041
GAPDH,4709.843,1770.53
GAPDH,4719.138,1769.976
TP53,4913.346,1771.763
CTSL2,4601.924,1772.451
HER2,4371.514,1775.081
GAPDH,5090.071,1776.554
HER2,4352.2,1778.52
CTSL2,4967.259,1777.429
CTSL2,4327.785,1778.535
RAC1,5176.712,1779.663
TP53,4544,1781.188
ACTB,4561.688,1781.125
TP53,5094.602,1781.881
EPCAM,4061,1782.5
ACTB,5013.901,1783.309
BAG1,4273.262,1784.495
MUC1,4763.99,1784.01
CTSL2,4790.678,1785.386
MYC,4412.459,1785.994
ACTB,5170.567,1788.739
RPLP0,4019.613,1788.394
CCND1,4168.948,1789.561
GAPDH,4614.324,1788.81
TP53,4534.778,1792.136
GAPDH,4010.951,1794.426
TP53,4714.658,1792.067
HER2,4754.969,1793.141
HER2,4107.38,1794.9
ACTB,4386.642,1793.972
ACTB,4485.659,1795.659
TP53,4132.152,1796.876
ACTB,5124.256,1801.026
GAPDH,4350,1802.699
ST-3,4949.547,1802.563
BAG1,4068.481,1803.963
HER2,4411.438,1804.308
HER2,4530.324,1804.4
ACTB,5123.833,1806.319
ACTB,4901.831,1806.746
CTSL2,4077.053,1806
RAC1,4090.5,1807.727
ST-3,4942.548,1808
CTSL2,4750.841,1808.5
CTSL2,4982.309,1808.646
TP53,4847.437,1809.729
ST-3,4938.861,1814
ACTB,4889.33,1814.784
BAG1,4916.403,1815.785
GAPDH,4381.893,1817.379
VIM,5146.106,1822.006
ACTB,5163.014,1824.978
HER2,4078.754,1826.406
ACTB,4445.967,1828
ACTB,4485.5,1826
HER2,4841.415,1825.634
HER2,4662.127,1830.392
HER2,4621,1829.5
GAPDH,4591.52,1833.451
GAPDH,4929.2,1833.438
HER2,4420.5,1835
ACTB,4301.889,1835.5
MYC,4955.606,1836.239
ACTB,5195.551,1835.719
ACTB,4612.453,1838.656
HER2,4838.5,1839
GAPDH,4388.406,1839.663
RAC1,4204.452,1842.887
ER,4381.103,1841.586
HER2,4618.653,1842.119
GAPDH,4729.255,1842.979
CTSL2,4828.202,1843.182
HER2,5180.046,1841.46
GAPDH,4324.702,1844.369
GAPDH,4978.476,1846.019
MYC,4042.278,1847.81
RAC1,4418.383,1848.296
HER2,4051.717,1850.15
HER2,4719.718,1850.308
CCNB1,5136.146,1850.438
GAPDH,4175.5,1852.378
RAC1,4659.144,1856.077
EPCAM,4980.552,1860.328
CTSL2,4387.604,1859.363
HER2,4727.346,1860.755
VIM,5018.808,1861.192
ACTB,4093.402,1863.189
HER2,4353.881,1863.198
MYC,4985.918,1866.041
CTSL2,4337.691,1865.966
HER2,4420.636,1870
HER2,4775.2,1869.418
RPLP0,4128.402,1873.392
CTSL2,4112.831,1877.065
ACTB,4507.758,1877.091
ACTB,4250.627,1879.446
HER2,4404.265,1881.819
ACTB,4835.824,1885.294
GAPDH,4332.653,1885.968
TFRC,4722.838,1884.115
GAPDH,4339.108,1886.486
ACTB,4195.074,1888.407
ACTB,5185.791,1889.372
RAC1,4205.755,1890.133
EPCAM,4742.734,1892.489
HER2,4141.633,1893.163
ACTB,4196.837,1893.306
ACTB,4277.333,1891.897
ER,4028.733,1894.12
KI-67,4340.82,1895.297
HER2,4080.131,1899.344
ACTB,4249,1899
HER2,4194,1900.709
HER2,4315.791,1901.372
RAC1,4351.741,1910.63
ACTB,4900.846,1908.615
ACTB,4285.605,1909.868
CTSL2,4581.13,1911.111
CTSL2,4589.791,1911.843
ACTB,4896.882,1912.5
GAPDH,4610.735,1912.418
GAPDH,4221.59,1913.345
VIM,4401.703,1914.288
ACTB,4902.566,1914.491
ST-3,4280.625,1916.042
TP53,4741.942,1916.161
ST-3,4307.634,1921.39
VIM,5019.589,1919.179
MUC1,4145.5,1922.571
TP53,4326.559,1926.566
ACTB,4366.106,1926.803
HER2,4723,1927
VIM,5020.865,1927.627
VIM,4913.906,1927.669
ST-3,4249.444,1928.722
CTSL2,4697.401,1930.338
ACTB,5080.727,1930.932
VIM,5184.221,1933.742
BAG1,4705.438,1935.854
HER2,4687.028,1938.756
ACTB,4874.42,1940.68
GAPDH,4244.022,1941.43
GAPDH,4236.36,1944.2
ACTB,4459.108,1944.735
CCND1,4666.127,1945.09
CTSL2,4184.596,1946.512
ACTB,4174.911,1948.821
VIM,5141.269,1947.885
VIM,4443.5,1949.761
HER2,4580.574,1950.542
CTSL2,4607.399,1952.098
MUC1,4570.646,1956.027
GAPDH,4652.75,1957.047
HER2,4679.969,1957.143
GAPDH,5127.149,1957.702
HER2,4211.864,1960.383
ACTB,4431.639,1963.361
VIM,4064.08,1964.598
HER2,4722.588,1964.588
HER2,4198.041,1967.694
CTSL2,4622.302,1967.84
HER2,4736.496,1968.504
HER2,4203.265,1970.471
HER2,4614.614,1971.737
HER2,4727.255,1973.298
CTSL2,4602.391,1973.073
HER2,4683.535,1972.969
TP53,4589.099,1974.652
ACTB,5087.609,1975.473
HER2,4984.65,1975.65
HER2,4553.442,1979.688
HER2,4012.196,1983.383
HER2,4378.259,1983.5
GAPDH,5182,1984
MYC,4039.373,1986.289
GAPDH,5127.574,1987.017
ACTB,4272.169,1990.525
CCND1,4687.5,1992.42
HER2,4707.906,1993.802
RAC1,560.9076,2006.034
TP53,274.9493,2012
RAC1,1550.634,2012.152
TP53,87.90244,2023.561
VIM,575.8966,2024.046
VIM,598.8395,2030.16
TP53,735.2798,2038.351
TP53,277.1194,2039.358
ACTB,1988.527,2039.486
KLF4,286.7349,2042.181
TP53,621,2044.736
ACTB,751.9394,2050.776
ACTB,395,2052
VEGF,1569.243,2055.5
ACTB,604,2057
VIM,1624.021,2070.979
ACTB,288.625,2072.625
GAPDH,641.8125,2076.134
ACTB,1222.081,2075.869
HER2,578.3205,2080.583
ACTB,604,2080.203
VIM,1620.697,2080.294
VIM,695.8302,2097.613
VIM,1840.862,2108.138
TP53,522.0493,2112.338
VIM,1870.345,2119.782
MYC,1877.625,2126.55
VIM,647.7476,2130
RAC1,426.1429,2132.214
RAC1,171.0861,2134.801
RAC1,678.3662,2142.366
GAPDH,1662.098,2151.294
GAPDH,1656.456,2153.824
VIM,146.6585,2160.341
ACTB,693.0526,2199.395
ACTB,1914.081,2219.829
BAG1,70.22302,2221.532
VIM,1969.017,2223.182
ACTB,1253.103,2242.793
ACTB,1253.266,2248.219
ACTB,1252.341,2254.439
VIM,1720,2253.709
ACTB,615,2306.59
ACTB,1164.914,2316.214
ACTB,749.5,2351.212
CCND1,1605.402,2359.255
RAC1,1699.813,2372.076
RAC1,291,2392
HER2,1038.474,2529.564
VIM,138.4436,2562.677
ACTB,143.1831,2570.944
VIM,147.4091,2578.636
VIM,135.1985,2578.626
ACTB,1903.893,2581.286
VIM,1323.339,2590.196
VIM,147.2986,2591.382
RAC1,1070.741,2617.5
VIM,1705.605,2636.256
RAC1,767.3529,2684.094
ACTB,1791.74,2694.74
ACTB,1504.182,2718.75
ACTB,1502.438,2724.438
ACTB,1514.462,2727
ACTB,1507.246,2727.115
ACTB,1519.741,2728.593
EPCAM,1499.5,2736
TP53,1614.164,2756.343
GAPDH,1552,2777.203
VIM,1569.5,2800.5
GAPDH,129.7027,2803.622
TP53,1994.086,2812.814
ACTB,1608.355,2835.161
VIM,1781.152,2836.333
VIM,1784.65,2838.5
RAC1,1979.336,2855.301
VEGF,1399.911,2870.059
VIM,205.5682,2900.352
RAC1,346.0769,2944.75
VIM,270.3364,2948.255
VIM,391.0678,2997.864
ACTB,393.9259,3004.815
GAPDH,325.7119,3029.746
VIM,1337.739,3120.693
STK,1830.391,3178.782
VIM,832.7905,3215.667
ACTB,262.2093,3283.547
RAC1,272.7241,3377.545
ACTB,845.929,3384.329
ACTB,490,3451
VIM,789.5,3511.707
VIM,716.6064,3545.468
VIM,773,3548.077
VIM,711.6111,3622.347
VIM,725.8571,3624.452
TP53,717.4314,3641.699
VIM,608.7451,3672.422
EPCAM,1747.333,3676.386
RAC1,662.7885,3686.5
RAC1,783.9267,3707.86
HER2,1591.5,3771.5
TP53,1684.408,3798.342
VIM,1654.123,3804.639
ACTB,1610.804,3827.098
VIM,630.2523,3830.252
VIM,1562.725,3828.637
ACTB,765.5,3842
VIM,232.3,3845.927
ACTB,794.3415,3852.341
HER2,3926.436,2007.107
GAPDH,3196.851,2012.474
GAPDH,3061.472,2013.176
ACTB,3103.731,2013.115
ACTB,2475.553,2014.311
HER2,3875.6,2014.577
HER2,3788.829,2016.772
ACTB,3248.117,2017.798
HER2,3987.064,2017.574
GAPDH,2436.946,2018.339
RAC1,2393.47,2020.145
HER2,3980.573,2020.214
ACTB,2445,2026.929
VIM,3295.533,2027.5
CTSL2,3843.413,2034
ACTB,2317.83,2035.523
RAC1,3125.843,2036.661
HER2,3733,2041.212
GAPDH,3918.627,2040.203
ACTB,2313.185,2042.463
TFRC,2557.081,2043.233
ACTB,2546.267,2047.986
VIM,2946.5,2048.5
VIM,2495.864,2051.864
RPLP0,3120.575,2053.102
ST-3,2688.396,2055.532
HER2,3887.221,2055.538
ACTB,2619.887,2061.226
ACTB,2330.222,2061.078
VIM,2308.934,2063.231
HER2,3964.638,2064.123
RAC1,3090.406,2066.057
CTSL2,2227.711,2066.455
VIM,3248.519,2070.204
RAC1,2567.366,2070.88
EPCAM,3804.388,2073.252
BCL2,2372.172,2076.882
TP53,2380.24,2077.926
CTSL2,3924.957,2080.172
CTSL2,3780.765,2080.993
ACTB,3987.467,2079.978
VIM,2735.096,2083.789
ACTB,3992.544,2084.019
ACTB,2715.758,2086.222
VIM,2178.5,2089.5
VIM,2942.835,2091
ACTB,2664.569,2094.759
CCND1,3883.777,2096.495
ACTB,2118.86,2097.588
VIM,2734.035,2097.558
GAPDH,3875.135,2100.383
HER2,3773.459,2100.4
ACTB,2743.463,2101.157
ACTB,2084.757,2101.68
ACTB,3585.5,2104.5
GAPDH,3869.86,2104.465
ACTB,2765.541,2105.953
VIM,3161.659,2104.659
VIM,3419.389,2111.689
CTSL2,3970.266,2114.318
VIM,3339.967,2118.517
CTSL2,3822.845,2121.161
VIM,2324.886,2122.269
HER2,3885.933,2126.607
HER2,3745.132,2127.038
ACTB,3164.664,2132.379
CTSL2,3863.873,2131.336
TP53,3263.047,2138.503
HER2,3951.451,2139.686
ACTB,2808.337,2142.359
HER2,3826.263,2144.203
CTSL2,3818.144,2146.979
HER2,3957.805,2149
ACTB,3346.056,2150.378
HER2,3860.77,2149.43
GAPDH,2402.616,2153.233
VIM,2333.495,2153.874
ACTB,3218.095,2154.048
VIM,2325.188,2155.383
TP53,3402.863,2155.588
HER2,3987.54,2158.255
VIM,3165.969,2158.646
CCNB1,3809.35,2161.037
ACTB,3068.5,2162
VIM,3960.339,2162.321
TP53,3291.052,2164.284
CTSL2,3832.584,2167.467
RAC1,2140.397,2172.426
ACTB,2103.641,2176.063
TP53,2394.86,2175.65
ACTB,3864.103,2174.974
ACTB,3137.609,2178.739
TP53,2923,2184.188
HER2,3852.267,2191.056
ACTB,3087.857,2195.377
ACTB,2687,2220.5
VIM,2546.758,2221.758
VIM,2643,2223
ACTB,3243.617,2224.136
VIM,3140.344,2224.869
ACTB,2640.167,2239.19
VIM,2083.139,2246.165
BAG1,3966.974,2251.237
BAG1,3966.077,2255.538
BAG1,3970.267,2255.5
ACTB,2499.011,2255.602
ACTB,3901.262,2256.577
ACTB,2935.243,2257.5
ACTB,2145.424,2259.285
ACTB,3004,2258.797
RAC1,3330.167,2259.705
VIM,2407,2261.797
RAC1,3702.094,2263.029
ACTB,2682.423,2264.692
RAC1,2094.207,2266.662
HER2,3752.776,2269.303
GAPDH,3994.268,2274.671
ACTB,3099.203,2278.203
CTSL2,3836.348,2282.112
CTSL2,3862.117,2282.654
ACTB,3201.819,2283.553
ACTB,2394.477,2289.252
ACTB,2962.243,2294.5
GAPDH,3116.064,2294.713
GAPDH,3328.908,2295.034
ACTB,3934.69,2294.214
ER,3822.171,2295.452
HER2,3919.456,2296.456
ACTB,3032.45,2298.622
ACTB,3934,2299.129
ACTB,3934.148,2303.377
VIM,2615.374,2308.26
ACTB,2790.949,2306.938
RAC1,2828.941,2311.168
RAC1,2905,2314.5
RPLP0,2263.642,2318.547
GAPDH,2298.624,2319.01
ACTB,2100.293,2324.224
ACTB,2200.038,2327.615
TFRC,2697.947,2338.588
CTSL2,3355.814,2344.155
RAC1,2589.585,2347.356
RAC1,3145.421,2353.532
KI-67,2202.082,2356.271
VIM,2962.116,2356.134
ACTB,2990.214,2355.916
TFRC,3122.398,2365.678
ACTB,3396.54,2387.911
HER2,2816.513,2394.059
ACTB,3952.058,2411.507
TFRC,3716.717,2415.826
GAPDH,3016.361,2417.109
VIM,2456.014,2417.971
ACTB,3119.435,2420
ACTB,3124.375,2418.75
GAPDH,3606.154,2422.269
ER,3652.392,2422.727
TP53,3686.022,2425.848
VIM,3569.391,2432.688
VIM,2435.262,2433.028
TP53,2362.911,2451.46
VIM,2330.658,2451.754
ACTB,2599.632,2451.353
ACTB,3024.8,2463.304
BCL2,3101.933,2463.522
GUS,3637.583,2463.667
VIM,2986.788,2476
TP53,2524.681,2476.405
GAPDH,2820.438,2478.719
ACTB,3000.812,2482.029
ACTB,2712.091,2483.682
ACTB,2771.819,2483.735
RAC1,3002.965,2490.717
ACTB,2279.488,2494.911
ACTB,3039.629,2503.452
VIM,3111.603,2508.103
VIM,3064.794,2508.5
TP53,2625.594,2517.845
ACTB,3047.5,2518.707
ACTB,3089,2520.797
TFRC,2727.053,2527.2
ACTB,2777.346,2541.686
ACTB,3643.296,2541.184
VIM,3624.919,2548.904
ST-3,2851.401,2553.816
BCL2,2450.717,2561.014
ACTB,3149.28,2567.84
TP53,2716.438,2571.143
TP53,2614.74,2571.988
CCND1,3016.992,2572.185
ACTB,2104.511,2577.117
CD68,3009.686,2579.095
VIM,2451.904,2580.365
ACTB,2734.236,2580.36
VIM,2715.089,2585.512
MYC,2747.707,2589.72
RAC1,2974.079,2589.323
BCL2,2680.192,2598.104
BCL2,3130.9,2597.218
MYC,2749.271,2598.125
RAC1,2754.854,2599.146
CTSL2,3719.736,2601.419
RPLP0,3087.313,2601.225
ST-3,3380.07,2601.404
ACTB,3608.227,2603.964
ACTB,2629.806,2607.194
TP53,2649.533,2608.13
ACTB,3195.969,2609.093
CCND1,3404.291,2609.156
ACTB,2465.06,2613.078
ACTB,3190.371,2614.299
HER2,3448.629,2614.014
HER2,3455.362,2615
ACTB,3243.491,2617.519
HER2,2763.846,2617.272
ACTB,3053.421,2620.092
ACTB,3984.029,2620.526
CTSL2,2942.659,2625.341
CTSL2,3074,2629.773
ACTB,3167.576,2630.326
VIM,2626.814,2634.124
ACTB,2815.798,2636.229
GAPDH,2721.014,2637.232
ACTB,3095.973,2638.378
ACTB,3398.523,2639.689
TP53,2799.748,2640.961
VIM,2833.381,2641.673
ACTB,3940.993,2642.478
GAPDH,2720.547,2643.651
VIM,2749.842,2643.508
RPLP0,2942.574,2642.759
ACTB,2564.452,2645.817
RAC1,2856.786,2647.379
TP53,2592.963,2651.795
CD68,2903.366,2652.366
GAPDH,3297.591,2655.636
HER2,3458.727,2659.388
HER2,3060.271,2661.177
KI-67,3146.847,2662.847
HER2,3555.079,2664.509
ACTB,3032.198,2665.395
RAC1,3409.516,2665.418
HER2,3465.139,2665.986
HER2,3523.719,2666.675
VIM,2786.265,2667.809
VIM,3986.506,2667.552
VIM,3319.415,2668.831
TFRC,3966.934,2668.219
ACTB,3722.86,2673.096
VIM,2602.409,2674.455
TP53,2664.015,2677.839
ACTB,3086.946,2677.554
ACTB,3891.189,2678.703
ACTB,3429.279,2678.702
ACTB,3961.644,2679.833
ACTB,2777.398,2681.475
VIM,2804.551,2685.663
TP53,3042.093,2685.93
ACTB,3033.769,2688.687
ACTB,3953.155,2689.167
VIM,3056.788,2689.5
ACTB,2263.979,2692.702
VIM,2858.88,2691.88
ACTB,2257.607,2692.574
HER2,3467.083,2694.265
RAC1,2901.433,2697.622
HER2,3397.53,2700.65
ST-3,2365.034,2703.121
ACTB,2988.3,2703.7
TP53,3172.081,2705.189
ST-3,2364.605,2708.953
ACTB,3008.365,2707.552
ACTB,2950.319,2710.945
RPLP0,3551.482,2709.956
ACTB,3147.824,2711.744
RAC1,3905.021,2714.646
CTSL2,3425.089,2715.881
ACTB,3718.565,2721.516
ACTB,3294.469,2718.759
ACTB,2935.185,2721.272
ER,3420.204,2722.939
HER2,3385.721,2722.107
ACTB,3844.865,2732.212
ACTB,2741.5,2736.824
EPCAM,3404.28,2741.065
HER2,3555.119,2740.475
RAC1,3403.823,2749.241
CTSL2,3511.545,2749.9
HER2,3550.383,2749.063
CD68,3007.208,2752.13
RPLP0,3391.278,2753.333
VIM,3856.353,2754.402
CTSL2,3020.5,2755.5
RAC1,2955.744,2755.787
TP53,3584.352,2758.165
ACTB,2662.461,2761.725
VIM,3394.467,2763.947
GAPDH,3573.852,2765.67
RAC1,2965.186,2766.059
ACTB,2441.254,2767.933
VIM,2955.772,2769.868
ACTB,2876.119,2770.358
GAPDH,3500.76,2773.43
VIM,2401.952,2781.153
RAC1,2976.34,2781.732
ACTB,2506.586,2783.207
ACTB,2500.831,2783.845
ACTB,2510.118,2785.912
TP53,3946.819,2784.164
CTSL2,3457.117,2786.767
ACTB,3832.5,2790.788
EPCAM,3096.605,2791.597
CTSL2,3566.858,2791.142
VIM,3949.034,2795.061
EPCAM,3629.843,2796.114
GAPDH,3274.657,2796.343
GAPDH,3456.438,2796.946
SCUBE2,3562.351,2798.895
ACTB,3927.409,2799.53
CTSL2,3532.378,2807.592
ACTB,3929.41,2807.656
EPCAM,3434.806,2810.194
ACTB,3071.464,2814.25
ACTB,3075.872,2817.333
CCND1,3342.523,2818.697
HER2,3386.796,2825.122
HER2,3629.204,2822.347
RAC1,3715.925,2826.333
ACTB,2929.942,2827.198
ACTB,3141.5,2827.738
HER2,3625.654,2827.617
GAPDH,3444.406,2829.246
BCL2,3805.987,2829.197
HER2,3111.138,2830.138
RPLP0,3099.068,2830.674
HER2,3434.515,2835.465
CCNB1,3789.284,2837.819
HER2,3579.858,2840.851
VIM,2295.516,2840.641
RAC1,3817.634,2843.602
TFRC,2292.218,2847.113
VIM,3034.726,2848.845
HER2,3559.71,2848.971
SIX1,3035.893,2858.117
HER2,3341.516,2857.242
VIM,2903.733,2861.1
CTSL2,3337.894,2864.46
HER2,3272.5,2864.738
HER2,2752.794,2866.113
CTSL2,3529.157,2868.471
ST-3,3818.13,2870.981
HER2,3301.125,2874
TP53,3331.675,2876.768
HER2,3283.366,2880.045
ACTB,2872.458,2880.875
RAC1,3444,2880.847
CCNB1,3528.835,2881.447
RAC1,3858.77,2880.416
HER2,3304.677,2882.719
BAG1,3295.726,2884.06
KI-67,3570.35,2889.35
GUS,3585.431,2889.664
ACTB,3471.557,2891.127
VEGF,2695.402,2892.213
CTSL2,3526.395,2893.474
TP53,3728.771,2893.741
ACTB,3893.5,2895.5
RAC1,2086.291,2897
RAC1,3332.699,2896.568
HER2,3307.563,2900.211
EPCAM,3249.679,2900.893
TP53,2018.448,2904
ACTB,3239.874,2903.457
ER,3314.07,2905.704
GAPDH,2058.453,2905.406
VEGF,3323.329,2912.853
ACTB,2734.898,2913.678
ACTB,2733.098,2919.195
RAC1,2807.992,2919.212
ACTB,2824.634,2921.634
ACTB,3883.472,2922.722
HER2,3582.883,2924.4
ACTB,3809.414,2923.109
EPCAM,3284.099,2926.631
CCNB1,3593.11,2926.015
TFRC,2786.904,2929.234
VEGF,3472.142,2929.299
CTSL2,3563.554,2930.076
HER2,3452.065,2935.361
HER2,3560.531,2940.25
HER2,3353.75,2942.636
VIM,2548.966,2943.391
RAC1,2722.284,2944.116
HER2,3556.157,2944.892
GAPDH,3497.811,2945.514
EPCAM,3326.711,2948.325
VIM,2738.35,2951.65
HER2,3496.042,2952.847
ACTB,2837.542,2960.473
RAC1,3332.827,2962.813
ACTB,3615.5,2963
RAC1,3913.956,2965.669
HER2,3548.875,2969.25
HER2,3553.978,2970.37
HER2,3562.682,2973.47
ACTB,3956.563,2979.792
ACTB,3960.802,2987.698
ER,3287.644,2988.23
ER,2714.301,2990.655
MYC,3291.012,2996.313
TP53,3313.737,2997.321
VIM,2466.151,3001.262
GAPDH,3656.442,3003.895
GAPDH,2645.268,3008.629
ER,3291.255,3009.836
BCL2,2455.22,3010.805
TP53,3367.547,3013.559
ACTB,2392.926,3014.222
HER2,3284.929,3015.582
VIM,3930.454,3017.471
CTSL2,3302.149,3018.475
ACTB,3696.39,3019.746
HER2,3257.938,3028.45
ACTB,2593.588,3030.246
ER,3301,3031
RAC1,3671.441,3039.676
GAPDH,3542.895,3041.855
ACTB,3578.767,3043.407
GAPDH,3498.864,3044.617
BAG1,2690.824,3047.28
ACTB,3665.782,3048.055
ACTB,2822.092,3049.672
CTSL2,3152.265,3048.841
GAPDH,3316.865,3048.708
HER2,3145.451,3051.255
VIM,2867.238,3050.774
TP53,2868.771,3058.11
MUC1,3147.593,3059.047
VIM,2895.21,3058.412
GAPDH,3338.036,3061.929
MYC,2498.204,3061.796
VIM,2794.465,3061.384
RAC1,3210.829,3062.309
VIM,3968.954,3065.215
VIM,3977.582,3069.091
VIM,2902.475,3071.822
RAC1,3633.744,3070.917
ACTB,2740.978,3071.478
MUC1,3388.46,3075.646
HER2,3145.403,3077.446
CTSL2,3285.914,3079.112
CTSL2,3245.54,3083.14
GAPDH,3971.688,3087.519
VIM,2894.064,3094.018
VIM,2915.516,3093.524
HER2,3225.379,3097.267
VIM,2882.574,3103.652
HER2,3220.232,3104.449
ACTB,3983.671,3109.085
HER2,3246.266,3110.835
TP53,3703.346,3112.5
BCL2,3268.444,3114.833
TP53,2521.71,3120.355
GAPDH,2614.94,3124.293
ACTB,3285.76,3126.767
VIM,3790.892,3126.917
HER2,3300.874,3127.391
ACTB,2924.086,3133.171
ACTB,2920.5,3135.4
RAC1,3075.815,3141.534
ST-3,3161,3159
ACTB,3779.615,3163.246
ACTB,2799.057,3167.214
GAPDH,2840,3166.709
VIM,3410.707,3167.973
ACTB,2805.333,3168.741
ACTB,2807.725,3173
TP53,2905.211,3173.355
VIM,2494.478,3173.345
CTSL2,3189,3179.238
VIM,2912.688,3180.896
CTSL2,3185.336,3186.748
ACTB,2309.899,3187.043
ACTB,2854.5,3187.415
ACTB,2311.576,3194.237
ACTB,3350.396,3197
CTSL2,2797.424,3200.98
ACTB,2923.625,3204.639
ACTB,3965.287,3205.5
CTSL2,2793.557,3207.619
BAG1,3307.68,3205.88
ACTB,2916.559,3208.304
HER2,3223.732,3211.179
CTSL2,3299.854,3210.893
ETV4,2871.34,3212.395
GAPDH,2953.897,3212.692
VIM,2943.65,3215.505
CTSL2,3307.68,3215.12
GAPDH,2524.136,3222.086
HER2,3247.322,3220.525
BAG1,3196.132,3221.896
VIM,2597.598,3223
ACTB,3592.291,3225
VIM,2615.68,3226.128
VIM,2597,3230.75
ER,3268.566,3230.877
VIM,3674.135,3231.344
GAPDH,3115.194,3234.194
VIM,2686,3238.5
GAPDH,3115.066,3240.033
ACTB,2617.091,3238.4
BCL2,3409.018,3244.991
RPLP0,3290.674,3247.239
GAPDH,3389.844,3246.738
CCND1,3197.346,3251.044
RAC1,3011.342,3262.316
CTSL2,3381.468,3264.222
ACTB,2090,3271
ACTB,3438.882,3271.216
HER2,3267.317,3272.878
ACTB,3464.471,3275.462
GAPDH,2294.184,3275.592
HER2,3356.826,3275.953
HER2,3257.839,3278.474
CD68,3757.667,3277.5
MUC1,3307.16,3287.32
TP53,3248.414,3292.8
TP53,3351.865,3298.344
HER2,3502.755,3298.649
TP53,2565.16,3299.681
CTSL2,3037.58,3312.453
TFRC,3287.245,3313.947
PR,3366.684,3321.175
HER2,3188.537,3320.622
CTSL2,3322.277,3322.139
HER2,3393.791,3328.849
HER2,3439.671,3331.024
ACTB,3383.172,3333.078
GAPDH,2718.21,3333.79
HER2,3348.576,3333.424
CTSL2,3025.376,3337.141
EPCAM,3182.554,3338.771
HER2,3008.316,3339.447
CTSL2,3015.123,3337.892
VIM,2546.143,3342.286
ACTB,3786.954,3341.954
EPCAM,3188.224,3343.224
CTSL2,3266.259,3343.198
VIM,3434.12,3345.12
ER,3003.027,3347.755
HER2,3307.504,3358.236
GAPDH,3723.701,3356.54
VIM,3083.646,3361.969
GAPDH,3725.611,3363.194
ACTB,3119.164,3371.306
RAC1,3972.487,3380.276
HER2,3294.02,3384.939
HER2,3278.615,3392.128
ACTB,3286.625,3396.521
HER2,3275.92,3397.591
GAPDH,3563.788,3400.981
ACTB,3167.451,3411.049
ER,3076.824,3419.412
ACTB,3616.022,3428.567
ACTB,3282.818,3430.446
TFRC,3008.779,3431
TFRC,2998.122,3433.376
ACTB,3888.85,3454.375
ACTB,3891.275,3461.824
GAPDH,3699.275,3465.262
GAPDH,3694.862,3469.379
ACTB,3307.727,3472.045
GAPDH,3104.379,3483.414
CTSL2,3315.18,3491.705
TP53,3201.5,3500.256
ST-3,3622.442,3501.279
ACTB,3060.524,3510.476
ACTB,3854.366,3511.366
RAC1,3277.521,3511.386
ACTB,3053.333,3516.879
RAC1,2823.851,3529.475
VIM,2800.641,3532.188
ACTB,2811.628,3536.527
ACTB,3489.875,3536.775
ACTB,2776.35,3537.27
EPCAM,3293.818,3538.573
CTSL2,3261.264,3538.594
ACTB,3176.284,3539.896
HER2,3338.926,3540.738
ACTB,3936.27,3539.73
ACTB,2054.861,3546.833
ACTB,3901.033,3560.072
ACTB,2782.952,3561.912
ACTB,3231.544,3563.676
ACTB,3981.843,3564.076
HER2,3491.364,3568.818
VIM,2880.138,3570.862
MYC,2790.621,3572.586
KLF4,2261.617,3572.865
RAC1,2931.461,3573.118
ACTB,2349.612,3576.141
VIM,2825.584,3577.015
TFRC,3505.634,3575.938
ACTB,3970.69,3576.478
HER2,3320.008,3578.13
ACTB,3954.225,3578.4
ACTB,2273.603,3580.413
RAC1,3220.5,3583.5
ACTB,3953.103,3586.302
RAC1,3752.969,3590.672
ACTB,2962.689,3591.592
ACTB,3925.547,3593.942
RAC1,2845.431,3594.215
RAC1,2943.708,3596.6
CD68,2632.922,3598.294
VIM,3920.056,3606.733
HER2,2856.2,3610.928
BAG1,2959.339,3612.202
RAC1,3128.413,3613.797
ACTB,3456.123,3615.566
VIM,3242.703,3618.153
ACTB,3171,3620
VIM,2975.772,3622.106
ACTB,2911.678,3643.356
HER2,2504.704,3645.439
GAPDH,3528.265,3645.946
TP53,3170.21,3651.503
VIM,2868.862,3657.138
VIM,3925.734,3658.633
ACTB,3883.205,3663.374
ACTB,2378.85,3666.51
ACTB,3191.9,3668.467
GAPDH,3761.065,3672.174
VIM,2958.591,3685.924
HER2,2580.667,3691.333
HER2,2497.654,3691.113
ACTB,2643.741,3693.345
TFRC,3116.213,3693.5
CTSL2,2536.6,3702.113
ACTB,3730.643,3701.5
ACTB,3722.467,3702.659
CD68,3914.694,3712.355
EPCAM,2243.203,3712.797
ACTB,3887.602,3721.041
EPCAM,2615.5,3727
ACTB,2950.65,3731.43
ACTB,3954.531,3734.112
HER2,2408.86,3735.29
VIM,2851.594,3735.453
CTSL2,2526.193,3737.025
CTSL2,2287.497,3742.81
ER,3733.327,3742.98
HER2,2212.107,3748.379
HER2,2280.545,3753.9
ACTB,2439,3761.254
HER2,2479.695,3764.322
BCL2,2574.929,3769.343
HER2,2270.178,3771.841
ACTB,3799.908,3772.175
BCL2,2503.368,3777.471
ST-3,2870.542,3778.922
VIM,2980.073,3778.635
BCL2,2624.652,3787.178
BAG1,2723.268,3787.179
ACTB,3988.868,3788.263
ACTB,3766.121,3789
RPLP0,2682.638,3791.094
ACTB,2906.128,3795.872
ACTB,3867.535,3797.384
GAPDH,2290.225,3797.3
GAPDH,3567.98,3798.863
GAPDH,2287.905,3801.69
ACTB,2594.261,3802
HER2,2664.992,3803.523
GAPDH,3568.531,3804.061
HER2,2532.883,3805.39
HER2,2604.373,3807.291
VIM,3349.25,3807.446
CTSL2,2704.074,3811.669
GAPDH,2293.254,3812.712
CCND1,2084.595,3814.298
HER2,2152.294,3815.6
GAPDH,2405.764,3817.708
ACTB,2601.523,3818.099
ACTB,2892,3820
ACTB,2675.679,3821.393
VIM,3346.942,3822.32
GAPDH,2497.24,3824.323
CTSL2,2684.659,3827.848
ACTB,2532.795,3830.344
GAPDH,2605.75,3834.896
GAPDH,2612,3838.639
ACTB,3986.817,3839.028
HER2,2246.131,3840.656
GAPDH,2545.245,3841.286
GAPDH,2607.207,3842.276
ACTB,3965.299,3842.722
RPLP0,2710.627,3844.187
GAPDH,3582.351,3845.838
BAG1,2702.493,3846.051
ACTB,3954.076,3848.212
ACTB,2583.377,3852.32
ACTB,3947.266,3850.5
CTSL2,2667.184,3852.377
RAC1,2457.788,3857.769
GAPDH,2632.389,3859.049
HER2,2239.97,3859.104
GAPDH,2705.074,3857.759
GAPDH,2582.214,3872.226
CTSL2,2675.355,3868.903
ER,2239.103,3871
HER2,2694.762,3874.393
TP53,3225.476,3873.208
CTSL2,2659.106,3876.547
CTSL2,2232.5,3883
GAPDH,4012.04,2005.065
CTSL2,4604.24,2004.8
HER2,4942.122,2008.322
RAC1,4028.982,2009.965
VIM,5256.912,2009.167
TP53,4085.342,2011.088
ACTB,5080.588,2009.588
ACTB,5085.526,2010.821
BAG1,4586.84,2011.938
CTSL2,4856.734,2012.024
CTSL2,4572.382,2014.64
GAPDH,4699.931,2020.277
TP53,4038.926,2021.362
CTSL2,4588.897,2024.041
HER2,4852.633,2024.627
ACTB,5251.6,2024.714
RAC1,4028.388,2025.942
RAC1,5024.993,2026.652
GAPDH,4350.326,2027.717
HER2,4964.776,2026.987
ACTB,5100.818,2027.455
ACTB,5251.971,2029.206
GAPDH,4354.303,2031.758
HER2,4958.911,2032.203
RAC1,4562.755,2034.575
CCND1,4580.352,2036.443
ACTB,4993.366,2035.834
MUC1,4969.268,2037.557
VIM,4076.719,2039.058
HER2,4851.406,2039.736
GAPDH,4816.033,2046.164
KI-67,4931.986,2045.846
TFRC,5062.245,2046.449
VEGF,4030.407,2045.5
MYC,5019.594,2050.93
ACTB,4934.663,2058.359
ACTB,4364.972,2061.333
MUC1,4618.747,2060.342
MUC1,4903.467,2061.767
HER2,5125.692,2062
RPLP0,5188.784,2066.329
CCND1,5107.169,2066.605
HER2,4979.589,2071.907
CTSL2,5091.315,2071.923
ACTB,5227.461,2073.377
RAC1,4986.839,2078.328
ACTB,4444.882,2079.473
MUC1,5131.703,2084.211
HER2,5105.31,2083.611
RAC1,4558.125,2086.67
HER2,4918.598,2085.745
HER2,5247.973,2090.247
HER2,4043.234,2092.026
CTSL2,4446.5,2093.183
ACTB,4247.604,2093.752
CTSL2,4805.504,2096.624
CTSL2,5132.405,2095.622
EPCAM,4028.457,2096.469
HER2,4912.5,2102
VIM,4206.193,2103.363
ACTB,5019.548,2107.887
CCND1,4124.589,2110.143
GAPDH,4430.667,2109.957
ACTB,4901.17,2114.44
HER2,4045,2116.325
RAC1,5147.767,2117.287
RAC1,4121.853,2119.622
RAC1,4427.605,2119.434
RAC1,4767.878,2119.128
CTSL2,4941.524,2120.819
VIM,4853.333,2124.287
ACTB,5045.778,2123.593
HER2,5155.974,2125.044
ACTB,4388.054,2125.911
CCND1,5123.117,2139.37
ACTB,4738.854,2141.354
VIM,4883.727,2142.273
GAPDH,4832.15,2142.967
ACTB,5046.345,2144.301
MUC1,5134.77,2145.993
VIM,4932.347,2147.855
TP53,4743.606,2149.083
VIM,4923.893,2149
CTSL2,5120.618,2149.559
RAC1,4768.662,2150.892
HER2,4797.11,2157.541
ER,4953.426,2157.074
GAPDH,4014.5,2160.243
CCND1,5050.141,2166.69
GAPDH,5190.056,2166.185
HER2,5138.878,2170.756
RAC1,5151.057,2170.358
GAPDH,4945.181,2173.768
HER2,5250.007,2175.764
ACTB,4678.395,2184.709
RAC1,4661.791,2188.317
CTSL2,5268.372,2188.453
BAG1,5216.486,2191.459
GAPDH,4020.895,2190.5
VEGF,4028,2191.015
CCND1,5088.737,2197.122
CTSL2,5155.5,2198.5
RAC1,4042.968,2200.616
GUS,5259.209,2201.442
HER2,4538.941,2204.458
ACTB,4805.486,2205.676
CTSL2,4713.084,2207.355
ACTB,4026.579,2209
RAC1,4468,2210
ER,4542.486,2211.171
ACTB,5125.5,2209.404
CTSL2,4727.245,2211
ER,4546.667,2213.833
COX2,5008.5,2214
CTSL2,4933.415,2215.237
RAC1,4062.331,2216.924
ACTB,4945.294,2216.765
VEGF,4658,2218
CTSL2,4722.575,2220.345
VIM,5089.676,2220.964
VIM,4453.038,2222.625
CTSL2,4946.5,2223.356
GAPDH,4053.706,2224.55
MUC1,4536.608,2224.88
CTSL2,4955.533,2229
HER2,5185.322,2227.86
CCND1,5039.163,2229.367
KI-67,4941.131,2230.818
ST-3,5116.112,2230.449
CTSL2,4655.04,2231.573
HER2,4714.045,2232.811
TP53,4725.228,2239.94
VIM,5252.721,2239.346
VEGF,4711.25,2241.212
MYC,4059.61,2243.5
CCND1,5014.118,2243.803
STK,5173.594,2245.264
ACTB,4632.313,2245.354
HER2,4593.021,2247.103
HER2,4584.065,2248.5
GAPDH,4714.128,2249.368
GAPDH,4799.138,2249.707
ER,4627.643,2252.098
CTSL2,4529.308,2256.197
HER2,4801.765,2256.412
ER,4556.386,2258.482
CTSL2,4654.112,2259.776
GAPDH,4573.594,2261.079
RPLP0,4457.874,2266.913
HER2,4750.908,2266.425
CCND1,4624.821,2270.308
HER2,4608.727,2270.3
ST-3,5243.108,2271.946
HER2,4780.514,2273.648
GAPDH,4015.23,2276.541
HER2,4609.381,2278.063
CTSL2,5271.86,2280.364
ACTB,4822.611,2281.756
RAC1,4032.246,2283.588
GAPDH,4577.647,2286.814
ACTB,4754.25,2286.033
ACTB,5210.071,2289.403
RAC1,5263,2291
RPLP0,4832.752,2291.72
TP53,5010.896,2292.182
TFRC,4573.767,2293.3
ACTB,5235.093,2294.458
TFRC,4580.705,2295.386
RAC1,4869.587,2295.719
MUC1,5271.721,2296.517
MUC1,5126.79,2296.834
GAPDH,4728.821,2298.137
ACTB,4422,2299
HER2,4801.816,2299.48
RPLP0,4742.201,2305.481
HER2,4804.551,2307.776
ACTB,4820.575,2307.05
ACTB,4825.921,2308.684
CTSL2,5165.024,2308.934
RAC1,4359.924,2313.099
ER,4916.291,2314.545
ACTB,4711.478,2315.681
HER2,4947.339,2316.471
ACTB,4838.655,2318.27
SCUBE2,4845.032,2326.635
RAC1,5077.432,2325.636
MUC1,4922.42,2328.809
ACTB,4045.437,2334
HER2,4841.147,2333.013
TP53,4127.88,2334.639
TP53,4945.127,2335.347
ER,4766.05,2334.775
ST-3,4330.5,2336.5
ACTB,4834.684,2337.102
VIM,4259.457,2337.287
ER,4761.673,2339.296
CCND1,5271.75,2338.042
TP53,4122.34,2341.291
ACTB,5240.256,2343.612
HER2,4842.885,2348.788
EPCAM,5210.712,2349.093
HER2,4848.848,2351.485
CTSL2,4543.227,2353.922
CTSL2,4923.308,2353.692
ACTB,4013.317,2355.837
ACTB,5034.5,2358
HER2,5147.013,2358.338
TP53,4648.892,2361.946
HER2,5107.393,2360.571
HER2,5113.504,2363.104
SCUBE2,4806.532,2363.885
CTSL2,4975.1,2363.7
HER2,5103.568,2364.216
MYC,5234.635,2363.766
EPCAM,5174.488,2366.192
MUC1,4605.104,2366.948
ACTB,4894.356,2371.386
GAPDH,4674.308,2373.038
HER2,4803.591,2372.833
ER,5208.38,2374.602
CTSL2,4515.716,2374.682
TP53,4705.968,2380.859
EPCAM,4518.951,2381.098
CTSL2,4677.922,2382.19
RPLP0,4796.868,2382.413
CTSL2,4817.431,2381.575
RAC1,4999.406,2382.994
GAPDH,4763.366,2383.366
GAPDH,5125.561,2383.351
GAPDH,5123.939,2387.515
ACTB,4955.637,2389.604
GAPDH,4984.556,2389
GAPDH,5126.417,2391.833
HER2,4565.196,2392.847
ACTB,4030.495,2394.505
ACTB,5096.72,2401.616
ACTB,4745.458,2401.039
HER2,4795.561,2403.598
VIM,4109.04,2405.864
HER2,4988.582,2405.681
HER2,5187.756,2406.05
VIM,4071.423,2409.615
HER2,4890.536,2410.411
HER2,5224.97,2409.591
VIM,4608.66,2410.453
HER2,4884.081,2410.645
ER,4911.305,2409.771
KLF4,5257.192,2411.013
CTSL2,4965.808,2411.788
GAPDH,5165.082,2412.837
CTSL2,4586.119,2414
HER2,5106.885,2414.577
GAPDH,5159.619,2416.651
EPCAM,5044.804,2419.783
HER2,5054.455,2420.701
MUC1,4958.579,2420.512
ACTB,5257.537,2422.14
VIM,4687.541,2422.707
VIM,4829.527,2424.236
EPCAM,5045.213,2425.984
VIM,5061.78,2425.74
ACTB,4681.197,2427.75
CTSL2,5271.108,2427.117
VIM,5058.682,2428.727
ACTB,5084.301,2429.521
CTSL2,5106.419,2432.374
ST-3,4808.966,2433.151
ST-3,4827.626,2433.131
VIM,4141.359,2438.641
VIM,4831.557,2439.823
RPLP0,5192.138,2438.5
TFRC,4864.697,2440.742
ACTB,4083.39,2440.5
RPLP0,5197.462,2443.395
ACTB,4895.597,2442.97
ACTB,5068.712,2444.315
VIM,4842.232,2443.808
MET,4209.5,2444.674
GAPDH,4872.349,2445.473
ACTB,4632.494,2446.819
ACTB,4668.532,2447.227
GAPDH,4799.991,2446.82
ACTB,4771.26,2450.429
VIM,4824.076,2450.4
ACTB,4909,2450.5
RAC1,4136.476,2450.796
HER2,5111.594,2450.659
VIM,4637.793,2454.429
ACTB,4198.971,2457.029
VIM,4721.646,2456.677
VIM,4678.5,2461
VEGF,4702.159,2460.488
VIM,4725.967,2461.9
CTSL2,4899.287,2460.685
ACTB,4839.769,2464.978
HER2,5172.482,2466.883
EPCAM,4927.457,2468.889
ACTB,4736.897,2471.046
HER2,5163.52,2472.26
CTSL2,4376.694,2473.552
BCL2,5017.106,2473.319
VIM,4171.688,2475.234
HER2,5168.429,2475.694
BCL2,5019.896,2477.813
HER2,4849.5,2479.5
ACTB,4353.59,2480.026
HER2,5166.962,2481.442
CTSL2,4064.053,2481.77
VIM,4237.68,2488.979
GAPDH,4325.622,2488.537
VIM,4427.875,2488.92
VEGF,4845.846,2490.728
CTSL2,4958.686,2493.552
ACTB,5203.341,2492.659
SCUBE2,4080.744,2495.915
RAC1,5092.26,2496.927
HER2,4896.745,2499.497
ACTB,5268.587,2500.446
VIM,4653.5,2501.5
ACTB,4664.138,2505.138
VIM,4600.021,2506.461
VIM,4614.35,2512.35
GAPDH,4221.782,2517.835
ACTB,5126.667,2519.491
HER2,4960.903,2523.944
VIM,4676.629,2526.147
ACTB,5245.609,2533.543
ACTB,5257.034,2534.845
ST-3,5272.392,2537.236
RPLP0,4972.319,2537.246
ACTB,4609.797,2536.783
ACTB,5079.293,2541.586
MUC1,4792.914,2548.648
HER2,4978.687,2552.601
RAC1,4927.873,2554.275
HER2,5253.044,2556.965
TP53,4775,2559.158
ACTB,4029.66,2560.717
ACTB,5039.685,2561.315
ACTB,5268.871,2562.643
ACTB,4942.904,2565.279
MUC1,5220.353,2565.5
HER2,4415.967,2566.317
ACTB,4960.01,2566.554
HER2,5185.478,2567.195
TP53,4971.852,2568.967
RAC1,4703.597,2570.882
ACTB,5217.667,2573.681
RPLP0,5168.901,2577.211
HER2,5158.517,2581.832
ACTB,4834.351,2586.574
VIM,4469.478,2586.007
RAC1,4652.218,2589.109
ACTB,4109.657,2590.448
ACTB,4698.856,2590.056
RAC1,4077.436,2595.264
HER2,4694.257,2595.432
ACTB,4089.983,2599.31
HER2,4695.622,2604.628
VIM,4084.791,2605.652
ACTB,4944.843,2606.943
ACTB,4483.528,2617.104
ACTB,4114.078,2618.778
ACTB,4176.265,2624.103
BAG1,5226.162,2624.761
HER2,5016.614,2630.542
VIM,4598.231,2631.592
HER2,4688.972,2632.324
ACTB,4364.683,2635.2
ACTB,4176.259,2636.638
ACTB,5093.167,2640.063
ACTB,5222.867,2645.071
GAPDH,4078.433,2645.617
CTSL2,5271.502,2643.743
GAPDH,4158.61,2648.558
MYC,4997.522,2646.554
CTSL2,5089.965,2649.426
ACTB,4590.181,2650.447
VIM,4189.977,2650.628
ACTB,4202.744,2651.564
CTSL2,5201.918,2650.4
HER2,4983.032,2653.084
VIM,5016.275,2652.794
ACTB,5226.554,2655.21
CTSL2,5208.99,2658.424
ACTB,4845,2662
ACTB,4457.243,2666.5
RAC1,4398.386,2667.497
VIM,4425.242,2667.778
ACTB,4578.685,2668
ACTB,5137.063,2668.156
MUC1,5203.803,2669.497
ACTB,5140.917,2672.056
MYC,5112.51,2674.39
ACTB,5165.935,2675.054
CTSL2,4289.365,2677.703
VIM,4159.04,2677.887
GAPDH,5171.845,2678.776
ACTB,4610.581,2678.409
ACTB,4850.17,2679.83
GAPDH,5006.339,2681.268
HER2,5057.871,2681.839
VIM,4605.586,2683.157
ACTB,4178.31,2685.905
HER2,5051.337,2684.817
RAC1,4439.409,2688.5
GAPDH,4914.459,2690.378
HER2,5017.366,2690.634
TP53,5196.723,2691.147
GAPDH,4919.486,2691.771
CTSL2,5163.297,2695.401
GAPDH,4298.261,2695.643
GAPDH,4916.393,2696.607
ACTB,4186.638,2708.372
GAPDH,4915.87,2710.283
MYC,4030.745,2710.48
HER2,4952.024,2712.216
ACTB,4269.319,2713.763
ACTB,4814.056,2717.676
HER2,5161.862,2727.138
ACTB,4934.735,2727.676
HER2,5004.379,2727.138
ACTB,4253.903,2728.72
ACTB,5031.658,2730.479
HER2,5002.47,2732.892
GAPDH,4254.087,2741.78
EPCAM,4924.404,2741.702
VIM,4050,2744
ACTB,4206.727,2743.727
HER2,4918.922,2746.089
EPCAM,4935.036,2748.362
ACTB,4162.057,2749.843
CTSL2,5028.545,2750.455
ACTB,5164.147,2750.99
VIM,5224.75,2750.5
ACTB,4080.584,2752.912
CTSL2,4965.183,2753.163
CTSL2,5037.551,2753.912
GAPDH,5096.907,2753.16
ACTB,4032.086,2757.328
ACTB,4027.619,2759.952
ACTB,4412.892,2759.529
ACTB,5182.639,2761.563
RAC1,4816.864,2762.864
HER2,4844.176,2766.351
CTSL2,5042.564,2767.119
HER2,4974.537,2769.684
MUC1,4875.284,2770.884
ACTB,4428.822,2774.425
HOXB7,5201.155,2774.602
ACTB,4433.605,2775.605
HER2,4438.821,2778.985
GAPDH,4740.359,2780.625
HER2,4997.733,2783.427
GAPDH,4743.966,2787
RAC1,4700.218,2787.345
HER2,4998.684,2788.86
HER2,4812.558,2793.31
HER2,5000.07,2793.596
ACTB,5074.816,2794.947
HER2,4621.013,2801.25
ACTB,4710.494,2806.303
HER2,4852.504,2805.926
HER2,4914.565,2806
HER2,4908.6,2806.871
ACTB,4326.098,2807.321
HER2,4662.402,2810.353
CCNB1,4336.548,2811.722
VIM,4397.547,2814.962
ACTB,4045.505,2817.305
GAPDH,4683.467,2817.933
CD68,4077.032,2818.516
RAC1,4797.838,2821.176
BAG1,4581.757,2826.5
ACTB,4268.5,2828
CTSL2,5112.538,2829.375
CTSL2,4691.262,2832.1
GAPDH,5116.856,2837.008
SCUBE2,4640.377,2838.604
HER2,4683.315,2837.322
HER2,4616.752,2839.086
CTSL2,4685.46,2845.587
ACTB,5261.313,2846.566
VIM,4062.712,2850.171
ST-3,4391.404,2849.974
HER2,4583.694,2851.576
HER2,4619.915,2852.923
HER2,4611.8,2857.545
TP53,4325.137,2861.075
RAC1,4571.856,2862.553
ACTB,4736.375,2863.521
EPCAM,4621.193,2872.412
RAC1,4948.518,2873.343
RAC1,4076.229,2875.611
VEGF,4717.65,2876.825
GAPDH,4689.224,2877.671
GAPDH,4592.596,2880.319
CTSL2,4604.362,2885.58
KI-67,4381.868,2885.338
HER2,4751.875,2887.162
ACTB,5173,2893
RAC1,4877.067,2893.89
GAPDH,5149.497,2893.523
GAPDH,5137.635,2895.404
HER2,4986.367,2896.163
GAPDH,5142.744,2899.615
GAPDH,4129.541,2901.294
EPCAM,4015.941,2901
MYC,4354.526,2902.289
CCND1,4750.868,2903.66
ACTB,5260.886,2907.214
HER2,4050.214,2911.571
CTSL2,4590.974,2912.496
ACTB,4580.03,2914.424
ACTB,4921.26,2915.096
RPLP0,5257.49,2915.517
VIM,4901.745,2918.102
HER2,4139.25,2923.31
ACTB,4591.38,2925.116
RAC1,4836.667,2924.811
VIM,5009.295,2929.068
HER2,4142.479,2934.507
ACTB,4607.246,2934.594
HER2,4571.739,2937.196
HER2,4589.819,2937.946
HER2,4546.54,2939.831
HER2,4842.691,2942.745
ACTB,4925.088,2943.965
TP53,4128.658,2946.414
HER2,4099.592,2946
TFRC,5147.452,2947.185
EPCAM,4623.044,2948.754
ACTB,4640.443,2948.473
ACTB,4065.12,2949.747
HER2,4560.197,2951.131
VIM,4997.336,2951.388
ST-3,4369.538,2954.513
VIM,5229.244,2954.474
VIM,5241.379,2954.336
CTSL2,4158,2958.05
CCND1,4698.255,2960.573
ACTB,4072.569,2962.862
HER2,4737.707,2960.854
EPCAM,5056.929,2962.452
TP53,5084.242,2963.353
VIM,4400.491,2965.981
EPCAM,5057.907,2970.465
ER,4123.496,2971.548
RAC1,4598.778,2972.704
VIM,4359.555,2974.761
ACTB,4625.767,2974.38
VIM,4981.078,2973.858
ST-3,5107.05,2982.495
VIM,4311.5,2982.457
VIM,4413.155,2983.917
VIM,4973.672,2989.179
RPLP0,4283.3,2990.367
CTSL2,4715.348,2992.888
BCL2,4397.368,2996.504
CTSL2,4556.632,2997.785
CTSL2,4726.529,2998.052
CTSL2,4717.706,3001.309
ACTB,4759.341,3002.341
VIM,4664.495,3004.606
VIM,4682.821,3005.231
CTSL2,4713.353,3008.601
ACTB,4869.695,3007.707
VIM,4930.578,3008.707
ACTB,4557.083,3010.625
VIM,4615.64,3020.326
RAC1,4698.565,3020.157
ACTB,4848.344,3023.719
CCND1,5178.719,3024.678
ACTB,4543.9,3032.556
VIM,4569.132,3039.341
ACTB,4591.409,3039.455
RPLP0,4165.138,3040.69
HER2,4307.523,3041.168
ACTB,4697.612,3043.204
ACTB,4809.138,3041.862
RPLP0,4157.127,3046.924
EPCAM,4230.95,3046.95
GAPDH,5115.766,3046.759
ACTB,4358.851,3052.723
RAC1,4401.473,3051.745
VIM,4346.616,3057.023
RAC1,4793.5,3057
ACTB,4405.816,3057.276
ACTB,4626.033,3060.598
HER2,4409.172,3062.828
GAPDH,4904.964,3060.928
ACTB,4439.5,3064.5
ACTB,4400.547,3065.245
TP53,4290.652,3065.723
VIM,4936.263,3066.444
ACTB,4946.813,3068.219
ACTB,4951.314,3067.235
CTSL2,4216.5,3069.918
HER2,4228.694,3073.847
CTSL2,5106.388,3073.592
ACTB,5165.111,3077.222
VIM,4384,3078.417
HER2,5181.185,3085.952
ACTB,4367.992,3090.952
RAC1,5139,3091.594
HER2,4413,3092.5
ACTB,4116.034,3092.638
STK,4198.9,3095
HER2,4819.278,3099.089
STK,4199.077,3100.596
RAC1,4346.341,3100.341
HER2,4435.6,3106.768
MYC,4832.603,3108.626
TP53,4074.055,3111.384
ER,4408.642,3111.881
CTSL2,5201.39,3112.475
VIM,4061.733,3119.4
HER2,4871.35,3119.517
ACTB,4788.748,3121.569
HER2,5147.993,3119.747
STK,4747.132,3121.333
HER2,4485.978,3120.935
ACTB,4631.443,3123.43
EPCAM,4831.696,3123.549
CCND1,4859.679,3124.255
ACTB,5209.275,3122.529
ACTB,5211.296,3126.593
HER2,4490.623,3129.023
CTSL2,4210.025,3128.852
HER2,4413,3129.5
ACTB,5209.977,3130.523
CTSL2,4450.423,3133.397
VIM,4169.341,3133.659
ACTB,4421.945,3137.138
HER2,4460.634,3140.366
EPCAM,4230.594,3142.969
ACTB,5169.058,3144.837
ACTB,4115.453,3144.594
EPCAM,4385.031,3145.344
HER2,4391.469,3147.141
VIM,4615,3146.5
TP53,4522.228,3148.829
HER2,5198.995,3149.326
ACTB,4061.429,3151
HER2,4356.051,3152.886
RAC1,4625.522,3152.806
CTSL2,4505.214,3156.262
ACTB,4811.265,3155.892
MUC1,4372.559,3158.412
GAPDH,4909.377,3159.377
ACTB,4409.619,3161.238
ACTB,4136.931,3166.81
ACTB,4260.5,3167.5
HER2,4350,3167.174
RAC1,4408.687,3169.344
VIM,4866.312,3168.312
HER2,4430.463,3174.378
MUC1,4885.266,3173.944
ACTB,4052,3174.5
RPLP0,4525.215,3178.535
GAPDH,4897.065,3177.355
VIM,4023.182,3178.554
GAPDH,4857.934,3182.036
VIM,4262.153,3192.89
ACTB,4607.418,3194.945
HER2,4896.915,3196.654
ACTB,4605.7,3199.75
ACTB,5159.979,3199.125
GAPDH,4486.763,3200.653
ACTB,5155.725,3202.928
VIM,4552.871,3204.591
CTSL2,4425.339,3207.017
CD68,5059,3208
HER2,4412.222,3208.944
HER2,4365,3209.685
MUC1,4260.157,3211.037
HER2,4441.783,3212.801
ACTB,4528.878,3212.661
TP53,4175.638,3218.059
ACTB,4079.15,3220.37
HER2,4346.802,3221.714
HER2,4415.735,3223.892
CTSL2,4859.807,3224.385
HER2,4485.224,3226
CCND1,4093.198,3229.264
ACTB,4125.748,3230.504
MUC1,4522.13,3231.662
GAPDH,4861.24,3234.289
ACTB,4771.326,3234.295
ACTB,4147.176,3235.343
RAC1,4517.041,3235.122
MYC,4915.975,3235.38
ACTB,4922.346,3237.923
HER2,4486.299,3240.215
TP53,4869.304,3242.859
GAPDH,4622.514,3243.829
ACTB,5042,3246
ACTB,4210.946,3247.395
ACTB,4117.625,3246.17
ACTB,4158.018,3249.532
GAPDH,4118.941,3254.706
ER,4897.719,3253.719
ACTB,4738.908,3254.966
VIM,4155.019,3258.66
CTSL2,4311.833,3258.444
RAC1,4171.024,3259.048
MUC1,4880.5,3260
RAC1,4163.981,3261.212
HER2,4699.41,3261.933
VIM,4121.174,3263.872
HER2,4708.151,3263.283
VIM,4873.636,3272.229
ACTB,4127.75,3273.5
CTSL2,4635.621,3275.288
CTSL2,4668.131,3276.656
HER2,4645.068,3278.554
HER2,4939.319,3278.331
CTSL2,4679.735,3279.721
HER2,4487.688,3280.094
ACTB,5244.304,3280.478
ST-3,4110.727,3282.013
ACTB,4367.5,3284.212
CTSL2,4683.038,3288.487
HER2,4648.589,3291.518
VIM,4187.933,3292.714
ACTB,4637.73,3293.289
HER2,4919.349,3292.977
HER2,4947.927,3292.6
HER2,4469.112,3294.358
CTSL2,4925.12,3297.896
HER2,4954.754,3298.73
CTSL2,4934.781,3299.949
CTSL2,4372.361,3302.361
ACTB,4622.14,3305.789
RAC1,5181.462,3307.349
MUC1,5237.5,3312
ACTB,4188.119,3312.209
HER2,4448.609,3313.172
ACTB,5002.537,3314.046
ER,4957.447,3317.096
CTSL2,5177.739,3317.359
RAC1,5272.557,3315.713
GAPDH,4464.388,3318.164
CTSL2,5137.684,3324.947
GAPDH,4787.37,3326.268
CTSL2,4510.031,3327.594
TP53,4910.129,3333.024
CTSL2,5270.464,3333.8
CTSL2,4492.426,3339.981
ACTB,4151.433,3342.589
RAC1,4518.272,3342.846
BAG1,5120.096,3342.774
HER2,4581.344,3344.795
ACTB,4133.342,3345.333
ACTB,4555.339,3347.518
RAC1,4388.388,3351.336
CTSL2,5142.539,3352.204
HER2,4505.375,3352.142
EPCAM,4492.023,3357.756
ST-3,4190.831,3356.025
HER2,4579.23,3358.712
ST-3,4188.977,3360.558
VIM,4235.342,3361.253
ACTB,4012.883,3362.425
BCL2,4499.541,3362.703
VIM,4548.143,3369.875
CTSL2,5145.531,3372.063
VIM,5155.948,3374.521
RAC1,4009.749,3378.842
TFRC,4324.608,3378.529
BCL2,4328.743,3384.365
GAPDH,4275.36,3386.73
GAPDH,4281.071,3390.964
ACTB,4134.145,3391.919
HER2,4902.441,3393.868
EPCAM,4867.931,3396.723
ACTB,5139.618,3395.964
GAPDH,4971.664,3412.02
VIM,4192.281,3414.856
VIM,4108.349,3415.831
ACTB,4280.753,3419.341
VIM,5202.558,3423.174
ACTB,4284.536,3425.449
ACTB,4148.735,3429.892
ACTB,4676,3436
ACTB,4567.374,3435.137
ACTB,4306,3441.6
ACTB,4181.309,3443.255
ACTB,4549.975,3446.95
ACTB,4068.101,3451.74
HER2,4917.542,3450.875
ST-3,4411,3456.831
ST-3,4459.186,3457.743
HER2,5137.024,3461.965
ACTB,4536.93,3463.456
ACTB,4528.25,3466.7
ACTB,4532.343,3467.429
ST-3,4827.463,3467.241
ST-3,4820.891,3470.391
TFRC,5197.429,3475.518
BCL2,5115,3480
CTSL2,4574,3481.379
RPLP0,4280.548,3484.903
TP53,4490.495,3487.946
BAG1,4456.478,3490.319
VEGF,4545.193,3493.476
ACTB,4269.325,3497.75
CCND1,4561.726,3505.123
ST-3,4226.82,3510.341
ER,4906.5,3511.293
HER2,4468.585,3513.463
ACTB,4484,3516
EPCAM,4524.446,3520.446
HER2,4537.644,3523.01
HER2,5196.571,3522.829
ER,5155.946,3523.369
GAPDH,4479.044,3525.544
ACTB,5003.307,3524.853
HER2,5195.49,3528.039
HER2,4490.667,3528.154
HER2,4817.393,3529.262
CTSL2,4211.154,3531.272
CTSL2,4155.667,3535
HER2,4549,3535
HER2,5231.366,3535.366
HER2,5135.84,3537.234
EPCAM,5248.179,3537.198
HER2,5213.716,3538.705
ER,5254.758,3543.273
RPLP0,4683.371,3546.787
RPLP0,4685.054,3554.189
GAPDH,4905.895,3555.903
EPCAM,4847.545,3558.409
SCUBE2,4509.425,3562.037
ACTB,4163.659,3568.659
HER2,4928.764,3569.118
HER2,4950.468,3568.679
ACTB,4890.471,3572.25
ACTB,4843.105,3573.362
HER2,4906.013,3577.226
HER2,4803.777,3581.532
CTSL2,4828.426,3589.62
CTSL2,4811.445,3590.473
HER2,4938.017,3590.41
HER2,5132.381,3592.791
ACTB,4627.695,3591.952
HER2,4774.529,3595.353
MYC,5241.452,3595.26
HER2,4675.519,3595.37
GAPDH,4601.25,3598.5
CCND1,4742.843,3601.371
HER2,5167.493,3605.087
HER2,5204.5,3603.5
GAPDH,5248.196,3605.892
HER2,4719.2,3610.575
VIM,4076.632,3611.904
CTSL2,4807.611,3611.376
SCUBE2,4507.944,3613.056
HER2,5140.667,3613.614
ACTB,4848.17,3613.562
EPCAM,5123.197,3614.016
EPCAM,5117.636,3615.636
VIM,4123.236,3617.573
HER2,4792.455,3620.301
GAPDH,4016.891,3624.572
HER2,4684.359,3622.424
EPCAM,5126.98,3627.551
HER2,5211.019,3631.038
RAC1,4304.337,3643.483
ACTB,4696.554,3648.875
VIM,4053.864,3650.864
HER2,4596.065,3651.826
HER2,4759.805,3652.729
GAPDH,4502.549,3660.549
ER,5095.552,3663.362
ST-3,4078.21,3663.613
ST-3,4070.471,3665.16
ACTB,4828.889,3667.413
ACTB,4879.355,3671.032
ACTB,4881.067,3675.1
ACTB,5160.475,3672.98
ACTB,4068.192,3676.2
ST-3,4172.565,3675.494
CTSL2,4952.117,3677.088
VIM,4715.5,3686.293
BAG1,4028.662,3691.419
ACTB,4147.723,3699.402
ACTB,4120.808,3703.013
VIM,4164.901,3707.934
TP53,4453.733,3707.988
ACTB,4676.1,3708.778
ACTB,4270.833,3709.778
ACTB,4660.5,3711.5
EPCAM,4035.648,3727.352
ACTB,4204.659,3726.659
ACTB,4608.667,3728.167
ACTB,4565.494,3729.607
ACTB,4821.714,3733.629
ACTB,4818.705,3737.455
ACTB,4619.341,3737.341
HER2,4881.325,3743.127
ACTB,4071.271,3745.527
ACTB,4583.97,3749.697
ACTB,4105.5,3755.5
TP53,4812.966,3756.398
RAC1,4841.634,3761.063
CTSL2,4957.068,3763.18
MUC1,4638.667,3764.417
CTSL2,4951.302,3767.698
CTSL2,4944.873,3768.682
GAPDH,4675.105,3772.882
RAC1,4986.688,3775.567
VIM,4539.719,3776.096
ACTB,4594.688,3779.375
VIM,4502.092,3780.966
HER2,4965.047,3780.724
GAPDH,4654.467,3782.433
KI-67,5171.474,3788.874
ACTB,4958.688,3791.312
ST-3,5066.206,3792.294
VIM,4235.667,3798.375
ACTB,4225.685,3798.349
ACTB,4485.617,3799.136
EPCAM,4616.85,3798.683
HER2,4641.98,3799.16
RAC1,4729.108,3802.687
ACTB,4238.328,3811.19
CTSL2,4649.765,3812.024
ACTB,4957.652,3813.909
ACTB,4963.968,3814.097
ACTB,4073.113,3813.859
VIM,4172.545,3818.409
ST-3,4072.755,3825.143
ST-3,4997.455,3824.909
RAC1,4091.407,3826.259
RAC1,4087.467,3826.5
ACTB,4945.185,3827.492
ACTB,4096.44,3829.964
ACTB,4945.822,3834.356
ACTB,4111.4,3836.013
ACTB,4156.317,3836.72
HER2,4699.854,3840.204
GAPDH,4161.447,3841.576
ACTB,4121.732,3846.493
ACTB,4112.647,3846.869
ACTB,4031.658,3849.253
ACTB,4010.797,3851.338
TP53,5255.34,3852.775
ACTB,4078.125,3854.639
ACTB,4434.613,3854.355
MUC1,5169.736,3854.473
ACTB,4439.256,3856.179
HER2,5073.985,3857.985
GAPDH,4417.321,3862.369
CCND1,4017.211,3865.726
ACTB,5134.483,3866.199
ATB1,0,0
GRB7,0,0
GSTM1,0,0
MYBL2,0,0
